
-++-

Generation = 60, Population = 33.
-++-
++++
+--+
-+8-
-+--
-++-
-+-+
++--
-+++
-+--
+--+
+-+-
---+
---+
++++
-+--
----
+---

Generation = 63, Population = 43.
++++
+-++
++--
----
++++
++-+
-+++
---+
8++-
-+--
-++-
-+++
+-++
-+++
+++-
++--
-+++
----

*** Life<FredkinCell> 7x13 ***

Generation = 0, Population = 26.
--0--------0-
--0------0---
0-----00--000
--0-00----00-
-0---0---00-0
-------0-00--
-000---------

Generation = 15, Population = 42.
1---45--4---1
-5--525412-41
-568-----2-73
6-03-14-125-5
34-52------5-
------2-36---
-------44354-

Generation = 30, Population = 44.
56-5-95---+-6
-7----+8----3
5-796------+6
+--+6-+-46+-+
6-----896+--9
67--76466+---
---+-9-8--7-6

Generation = 45, Population = 45.
++6-8+-49-+69
+---8------+-
---------9-+-
--0+9-++----+
--+-+++--+-++
+-9-++98--+++
-+-++++---9+8

*** Life<FredkinCell> 15x14 ***

Generation = 0, Population = 34.
---0-----0-00-
-0--------00-0
---0----------
-----0-------0
-0------0-----
---0---0------
---------0-0--
--------0-0--0
----------0---
---------0---0
-----0---00---
-------------0
-0------0-----
----0---------
-0---0-----0-0

*** Life<FredkinCell> 11x12 ***

Generation = 0, Population = 24.
---------0--
-00----00---
---0--0--0--
--0----0----
---0---0----
------------
------0-----
---0--------
-0-000---0--
0----0-----0
---0------0-

Generation = 6, Population = 65.
--1200--1-0-
11-0--224-1-
03-0130--4--
2120--2-22-1
--0---1---1-
2---03-3--1-
-1--01---211
2-------1---
30-111--20--
--4-1202---4
0-133102-5--

Generation = 12, Population = 57.
--58-21332--
-24--23-42--
6-2-2414--4-
---1-1--5-14
----1-3-----
3---1---3-23
-3--011-3-5-
--1-0-----0-
32-3-------3
--8-----1-15
-22373-4-53-

Generation = 18, Population = 56.
-----3---22-
-55---64----
6--3--485---
--42---4---5
-7-1---3--40
-3-32--4--2-
1-65---2-454
4--3---16-1-
5--35--06--6
3--32--425--
----+-3-2943

Generation = 24, Population = 70.
4--+--6-76-3
3-------6-4-
-9+7-95-85--
557-224--5--
---363-415-0
5-664944-5-8
4-+714-46---
-4-3-------3
8-67-4--9-86
56--4-3-2938
14-5---5--47

Generation = 30, Population = 53.
-4--57-4---4
--8-+-7-85--
--+--+------
-887-4-----9
-----5-4--71
8-7--+4-----
--++--348-9-
7-5---------
---87-55-2-8
78-5553--+--
2--5+-59-+-9

Generation = 36, Population = 62.
-57+-++59++4
-----+88-6--
+++-8+-+--+7
----26-6---+
7-6-85+---+5
----4+----3-
--++-865-89-
--------7---
---8--7-+598
7-+--6--5-5-
676---6+3+--

Generation = 42, Population = 70.
99-+-+--+++-
--+4--+-+9-4
--++++---8--
8++-688----+
--96+8+64-+6
-8--4----9--
---+8997---9
--8834--+439
+--9+-+--7+-
--+7-6--8-9-
++69-+8+--4-

Generation = 48, Population = 61.
--9--++-+---
4+-6-+-+++9-
+----+-+---8
++-+--8+9---
-+9---+---+-
--+64-++++--
8--+----+-++
-6-8---4-6--
--+-+7+---+9
++-97--6++--
--7++--+8-5-

Generation = 54, Population = 60.
++9+-+---++6
5+---++---+-
-++-++8-+-+-
++++++8-----
-+-9+-------
-+---+-----+
----9-+--+-+
+---3-+-+-5-
++-++7++-9+-
++--8----++-
+-9-+-----9-

Generation = 60, Population = 63.
+--+---8+---
---+-++++---
+---++++--++
--++--8+-++-
+-++-----++-
++-+-++----+
---+-----+++
+-------+-6-
--+-+-+++--+
+++++9+---++
++-+++++-+--

*** Life<FredkinCell> 13x19 ***

Generation = 0, Population = 22.
-0-----------------
-0-----------------
-0-----------------
-----------0-------
------------0--0-0-
--------0----------
-------------------
-------------------
-----------00------
-0---------00------
-0--0----0---------
--0--------0------0
------0-00---------

Generation = 12, Population = 103.
-2----1--2--3--2000
0---10-1---3-1-2---
15----0-21--32--22-
1-2---12---3--1-1-2
130-3---3131--1-115
--30-0--0---0------
---------415-3-0---
1-2-0-03---13-121-4
----123-3---0-----2
-----2---5---5041--
34---3-13---5-2-32-
3-443-------5--14-0
-351----3-5-4---212

Generation = 24, Population = 101.
-7-6------5-43430--
--4-5-2---2-7-4---5
--53-5-7----85522--
---8-------9-------
----63---572-7542-5
-4-4612--3-4435--35
-7-036-2-7---54214-
--6-4-------5-----6
--7---5-66-839-2-6-
5--20---3--35+--145
---726654------2-7-
-------------------
-59-5-446475-8-7---

Generation = 36, Population = 118.
----67-35+--44-73+4
25--65--5--5-8--4--
-9--++---9--96-3-9-
--+----5----------7
5---+59677---+9+-48
-897---75---6--45--
3-6--94--+--1+---4-
3-9-6-2----67-7-5-+
79+-76----8+5+-35-9
-+--6+-36+-7-+4----
9-8-5+9-5867-68----
---9+-4----5+-+8---
2++29--6-4+-+---683

Generation = 48, Population = 107.
----+8499-97--+-6--
---69-3-7-----9---9
---3-+9-9+-9--+57-4
---++-------+------
--8+--+-+--8+--+--+
--+-+27-+95-9-+---+
-+-7-+77+-++-----87
---99-------9------
-----79++--+-+5-6-+
9++-8-8-7-+-++7-97+
-9+-+-++8++++-+-++-
----+-------+------
-++5--8-+--+++-+-+8

Generation = 60, Population = 122.
---+-+-+---++++++--
-++--+5-+++++--++-+
8++8--+++++++---++7
--++--++---+--+4--+
+-9---++-+--++-+-8+
+---+799+--+----9+-
8---6+-++++---+56++
5-----+----+--+++--
+-+-++-----+6+-88--
+++8-+-7----+++-+8-
-+---+++++-++-----7
---++-+----++-+----
6++9------+--+--+--

*** Life<FredkinCell> 8x16 ***

Generation = 0, Population = 33.
--00---0-0-0---0
------------0---
0-0--0---0--0---
--0-----0-------
-00--------0----
00-0-------0--0-
---00---0--0--00
-----000--0----0

Generation = 14, Population = 58.
3-5---------5-15
--4-----0-4-32--
-5--54-0-31---43
4-----1----32-54
54492-5-90---541
-2-63-2-43-4-432
1-45-------84-13
-22-03---5-----7

Generation = 28, Population = 65.
--+-7--646--8--+
----71--70+8+-86
5-6----3766+54+-
7+----5--4----9-
8-++--+-+-955596
---+--758-999-5-
6---64-637---+-5
+7---5-4-----76+

*** Life<FredkinCell> 6x12 ***

Generation = 0, Population = 21.
0-----------
0--000--0-00
00--00-00---
---0--------
---------0-0
0--00---0---

Generation = 3, Population = 36.
-21-2-----00
-------13-3-
0---01-3--22
-20-0--00---
2100--00-100
-201--0010-0

Generation = 6, Population = 39.
25213312--0-
0-212-2--142
0-00140-2-25
----3-1110--
5------10--1
----4-03--2-

Generation = 9, Population = 28.
-5--4----2--
0--1-22--2-2
1--1--3--2--
-2---2---1-1
5---2102-1--
-2-1--3-2--2

Generation = 12, Population = 42.
---2533---14
325-632-624-
--2234---226
33--55-2-1--
5--0--1322-2
0-115---204-

Generation = 15, Population = 40.
-7-58--533-7
63-3--2--57-
23----6-5357
-60-55---202
--0-44------
1-448-432153

Generation = 18, Population = 31.
--55-----31-
-4--833-78--
3-2-5-------
-7-1-----3--
5--47-3-651-
---58373316-

Generation = 21, Population = 40.
2+68+--7444-
--769---+98-
-53-65-59---
37--561324--
52--7-48---4
---6---4-466

Generation = 24, Population = 47.
5+-9+83+7--+
-----351++-5
4534-6+6+358
-812-9--3732
6-3--5-+6517
3-----+-557-

Generation = 27, Population = 33.
8+-++--+---+
---7+------6
---597-7--6-
-91---35-8-5
944-----6618
-4-7+4-85---

Generation = 30, Population = 30.
--7---6--5-+
-4-8-5--+---
-84--8---3--
4-1--9--59--
+4-5---+-9--
4-5+-7+--698

Generation = 33, Population = 39.
----++7+8-5-
----+-6-++9-
5956----+-6-
--23--458+37
+5-8985-6--+
-88-+-++7---

Generation = 36, Population = 37.
++7+++++--8+
-6-9-6-2---7
8-86-----46-
7----+55-+4-
--5-+-6-6+-+
6--+--+---9+

Generation = 39, Population = 39.
++-++---88-+
-9-9+-+3+++-
+--7---8+5-+
-+3---8-8-5-
+-5-+--+9-1+
7--+++++----

Generation = 42, Population = 29.
-+7-++-+--+-
--++-8---++-
--+-----+-6+
8---7--79+--
-----9--9+-+
89----+-7--+

Generation = 45, Population = 35.
++8-----89-+
8------7-+-+
+--9---9-5-+
----7+++---7
+57++97-++1-
+-+-+--+-6--

Generation = 48, Population = 42.
---++-+-+-+-
9-++-+--++++
--++++---67-
----7++-+--8
-68+++7-++4+
++-+--++97+-

Generation = 51, Population = 32.
++------++--
----+---++++
-+-+-++--77+
8+-9-----+89
+-8--+--++5-
+----+++----

Generation = 54, Population = 41.
+-+-+----+-+
+--+-++-----
++--+++9-+-+
8---++-+++-+
-89+++8+-+5-
++--++--+8++

Generation = 57, Population = 41.
+--++++-++++
+++-++-9-+++
--+----+--8+
+---+++--+8+
-8----8++--+
++--+++--++-

Generation = 60, Population = 36.
-+++-++--++-
-+++--++++--
+-++--+-+-++
-+-------+9+
---+--+++--+
++--+++-+---

Generation = 63, Population = 37.
+--+--+--++-
-++-++-++---
--+++--+++--
++7+-+--++--
--+--+++++-+
++++-+-+----

Generation = 66, Population = 38.
++++-++++--+
+----+-++++-
--+++---++++
-+8--+-++--+
+--+-+++-+--
-+--+-+---+-

Generation = 69, Population = 41.
++-+++--+-+-
+++-+++-+--+
++--++++-++-
++8-++--+---
+-++-+-+---+
+++----++--+

Generation = 72, Population = 36.
--+-+-+-+---
+--+++-+++-+
-+-+-+++-++-
-+-++++-++--
------+-++-+
++--+--++-+-

*** Life<FredkinCell> 13x18 ***

Generation = 0, Population = 24.
-------0---0----0-
---0----------0---
-----00-----------
---0-----0-0---0--
0--0-------0------
--------0-000-----
----------------0-
------------------
0-----------------
------------------
-0----------------
-0------0---------
-------0----------

Generation = 13, Population = 114.
134---42----83-6-4
12--153-4-31-17361
2-3--1----34-11-10
0---4216-7--3-14-0
--4--1---32-2--5--
-1-7-2-21---542-24
1--33-335--4-4----
4----2----24------
46---2-012---02--1
-313--1-10--1---01
-22---0-202--10-0-
-2-6--0-2--3----14
---41-121-04202--2

Generation = 26, Population = 117.
379--5-------7-+7-
53-54----365--9-9-
--7-548--76-127436
--4-87-98+----1---
-5--5-77--795-8-47
-32+-5242553-774-+
-----46-8---------
----5-21-36--1-2-2
674---5-5-----824-
--89--4--3-7---62-
-657-6-353--74363-
4-6-46--7--8-55-67
776+5--2-2----65-4

Generation = 39, Population = 114.
8++---+--+--+----8
7+--5--------++7++
-7---++---7--5+--8
4-6+--6-+---9--+4-
----+-8+897+-7+88+
---+-7975----++-++
8----7+++-3--7-46-
6+8-8887-89-+--7-5
+--++-7----5-7-7--
5+++-57-859--5---6
++6--9---66-+7-8-4
-+---9+-+---9----9
++-+----5--95-6+--

Generation = 52, Population = 129.
---++9+++-6++++--+
--++-+8-+-++6-+-++
6++-+++++9-+-9+---
6+-----+++7-++-+--
-+-8++-++-9-+-+-+-
+85-+---+--8+-+---
--+-+----+8+-+8-99
++--++--8-+-+-8-++
+---+--+--8--+++++
+++-5-+---+-+77+--
+-8+--7-+-9----+9-
++++7++9+8-++--+--
-++----5-+---+9-4+

*** Life<FredkinCell> 12x3 ***

Generation = 0, Population = 19.
0--
-0-
---
---
00-
00-
000
0-0
-00
0-0
000
-0-

Generation = 3, Population = 22.
-0-
-00
--0
-0-
--0
110
-11
111
2--
-11
031
13-

Generation = 6, Population = 17.
---
---
1--
-00
2--
423
--2
-21
-1-
411
13-
1--

Generation = 9, Population = 16.
--0
-1-
-23
2--
-1-
-23
-4-
3--
424
5-4
4--
---

Generation = 12, Population = 18.
--1
-20
234
3-1
-23
6--
35-
4--
---
61-
5--
-3-

Generation = 15, Population = 17.
034
--1
-6-
-32
--3
---
6--
--3
--4
---
842
530

Generation = 18, Population = 20.
33-
4--
4-5
732
--6
-45
774
-36
7--
---
-53
6--

Generation = 21, Population = 19.
4-4
4--
---
8-5
-57
---
+77
-46
-47
9-8
8--
-52

Generation = 24, Population = 20.
---
-32
-+7
93-
587
+-7
+8-
85-
858
---
+--
--5

Generation = 27, Population = 15.
6--
54-
4-7
---
-98
---
---
967
-8-
+-+
+8-
---

Generation = 30, Population = 21.
965
-53
7+-
---
--9
+--
---
+7+
+-9
+--
++6
976

Generation = 33, Population = 16.
+76
-6-
8-8
+-9
-+-
-7-
---
-7+
---
-6-
++-
-+-

Generation = 36, Population = 16.
---
+75
+-+
---
8+-
---
+9-
+--
-++
--+
--8
9-6

Generation = 39, Population = 14.
---
-75
---
+-+
+--
+--
---
---
+-+
+7-
++8
+--

Generation = 42, Population = 14.
---
+--
+-+
+--
+++
+--
---
-9+
++-
---
++-
---

Generation = 45, Population = 16.
--9
---
--+
-8-
+++
--9
--+
---
+-+
+8+
+--
-+8

Generation = 48, Population = 16.
-9-
-97
+--
--+
++-
-+-
+--
+-+
+-+
-9-
-+-
-+-

Generation = 51, Population = 17.
-+9
+-8
-+-
+9-
---
--9
-++
---
---
++-
+++
+-+

Generation = 54, Population = 13.
+--
---
---
---
---
-++
+--
+--
+-+
+--
-++
+++

Generation = 57, Population = 18.
-+-
+-9
--+
+++
---
++-
-++
-+-
--+
---
+-+
+++

Generation = 60, Population = 11.
---
--+
--+
-+-
++-
++-
+--
---
+--
-+-
---
+--

Generation = 63, Population = 22.
+-+
+++
+++
++-
---
-+-
++-
+--
-+-
+++
+-+
-++

Generation = 66, Population = 14.
-++
---
++-
+--
---
-++
+++
+--
---
+--
-++
---

Generation = 69, Population = 18.
+--
+--
+-+
---
--+
--+
+++
--+
--+
-++
+-+
+++

Generation = 72, Population = 17.
+++
--+
---
-+-
+--
+-+
-++
-+-
--+
--+
+-+
-++

Generation = 75, Population = 17.
-+-
--+
+--
+++
-++
++-
+--
--+
+++
---
--+
+--

Generation = 78, Population = 21.
+-+
+++
+++
+--
+--
-++
-+-
-++
++-
+++
--+
---

Generation = 81, Population = 23.
--+
--+
+++
-++
-++
+++
++-
++-
+-+
-+-
-++
++-

Generation = 84, Population = 15.
--+
++-
---
--+
+--
+++
-+-
++-
---
+-+
--+
-+-

Generation = 87, Population = 14.
++-
-++
---
---
++-
++-
-+-
-+-
+--
+--
-++
---

Generation = 90, Population = 17.
-+-
-++
---
+++
+++
---
---
-++
+++
---
--+
-++

*** Life<FredkinCell> 14x16 ***

Generation = 0, Population = 33.
--0---0---------
-0-0---0----0---
--------0----0--
------0---------
--------------0-
-0---------0----
------0-00-----0
-------0-----0--
---------------0
------0--0--0---
---0------------
-----00---------
--0--0-000------
------0-----00--

Generation = 13, Population = 102.
10--14-36-4313--
2--2--12----1---
4--4---14-0-3082
---2--3--4-3-23-
-3-3--620---2--2
4----2--1----22-
--7-0-3-52---5--
01320---5-6---02
2--20-432-34--51
--2---353068-2--
---0---2-22-2342
-5-21----4--6-20
---05-2------234
6--0--33---4---4

Generation = 26, Population = 98.
1----9----8--95-
45-68-5--1-36---
8------3-53-7-+9
4--3--856--53---
57--5--3-1--7-4-
-3----37-851-4-9
7-+33-4-------7-
---5--5-9-++3--5
-96634-----4--9-
668-2--8--8-6-+-
5---4-----5-5---
3-445-----3---84
65--68554-8-2---
--8427-+----+5-8

Generation = 39, Population = 123.
----6++-+-++-+--
5---++-6+434--+-
+-+++-----4-96+-
5776+--8-648--+4
7--65++---+88---
752-8--+-----45+
9-+5-98--8+++-+-
-59-8-8-+8++-+16
7--8-9+8-+-72++-
-++9-++99--+--+9
-9-5442---7-7++3
-+5-9-------+---
-9-5+--+---+35-+
-8+4-+--9-4+++--

*** Life<FredkinCell> 10x9 ***

Generation = 0, Population = 27.
--0--00-0
-0-----0-
0-0------
00-0---0-
---------
--0--0-0-
0-0-0-0--
0---0-0--
--0----0-
-0-----00

Generation = 4, Population = 41.
-1--0---2
--11---2-
--0--02-0
0210-21--
-----0210
33-0--301
1-4-2-4--
---04---1
0-20--0--
3212-----

Generation = 8, Population = 43.
111-26112
-233----1
----4-3--
2--1-450-
2------5-
3--0-3523
--6-32--1
4---44-11
--31220--
--3--2---

Generation = 12, Population = 38.
5--2461--
--4-1-1--
-41---41-
43-3-8-0-
401-1---0
-----46--
-1----7-3
-2------2
54-163---
52-20----

Generation = 16, Population = 40.
-4----3-5
----251--
--1-5-62-
-5332+--3
--5--15-1
6--0--6-5
----54-07
-4----52-
7--18--4-
5-7-2-21-

Generation = 20, Population = 45.
-44---53-
-36737--4
-62253---
-7--4+7-5
--75--58-
8-3--77-5
6280----8
4-2---6--
-----656-
74--4-4-6

Generation = 24, Population = 45.
8-556---8
24-8-7554
4--6-5---
----5+---
71-7-27-2
-+34-+9-7
7--18--1-
----897-7
-6---8-86
98----5-6

Generation = 28, Population = 47.
-57---87-
4-88-9755
-7--8---1
5+--6+7--
+3+82-9-4
+-363---+
--8-85--+
--3--+--8
+---++---
--+4555-8

Generation = 32, Population = 41.
-6---8-7+
47-+5+976
7------7-
7-6-7---5
+-+-4-+--
+-7-4---+
---------
--419---+
+--4++7--
+++5-9-1-

Generation = 36, Population = 38.
--77-+---
49+----9-
-878+6--5
---6+----
+4-+---+7
----8-+--
8------3-
-6-5-+---
+946++-+-
--+-7+8--

Generation = 40, Population = 45.
-97-8++--
---+-+---
8-9++---5
8+-8-+-87
+-++53++-
-++-9++9-
-6---5-3+
--97--8+-
---8--+--
--+69+---

Generation = 44, Population = 40.
--9----++
--++6-9--
----+-8--
-----+-8-
--+--3+--
---79+++-
+-9--6+4+
-9-7+-8+-
+---++--9
---+9+93+

Generation = 48, Population = 46.
+-++-+-+-
-----++--
--+--++--
----+-8--
-6--75+++
++-9-+-++
+7-4+-+4+
+++-+++-+
-+--+----
+-+++++--

Generation = 52, Population = 38.
+--+--+++
8-++--++-
+---++---
-+--++8-7
-8----+--
+---9++--
+9+6-----
+-++-----
++----++-
-+++-----

Generation = 56, Population = 47.
++-+++--+
9-+--++++
+---+-++-
---+++8--
--++-7---
----+-++-
-++---+9-
+--+-+-++
++-+++--+
+++++--5-

Generation = 60, Population = 48.
---++---+
-+++8+-+-
--+--++-9
-+++-+--8
++----++-
+++-+++++
-++7+8--+
+--+-+-+-
-+--++++-
+++------

Generation = 64, Population = 35.
-++-+++--
+----+---
+---++--+
---++----
----7-+--
+---+----
--+-+-++-
+++-++--+
--+++--+-
+--+-+--+

Generation = 68, Population = 46.
+-+-----+
-++--+---
+-+--++++
-++-++-+-
++++-+++-
+-+++----
+-+8+++++
+-+-+----
--+----++
-----++9+

Generation = 72, Population = 52.
++++----+
-+-++-+--
++--+++-+
+-+++++++
---+7++++
-+--+----
++++-++++
-+-------
-+--+++++
-++-+-+++

Generation = 76, Population = 40.
--++-+---
++++-+++-
+------+-
---+-----
-+---+-+-
++++-+-+-
-+-++-+--
+--+-----
+++-++++-
-+++-+-+-

Generation = 80, Population = 42.
-----+++-
+--+++--+
-+-+-+++-
+--+---+-
++--+++--
--++++---
-++--+---
-+--++---
+-++-+-+-
++++--++-

Generation = 84, Population = 44.
+++-+---+
-+----++-
-+-+-++++
-+++-+---
--+++++--
--+-++---
++-+---+-
+++--++-+
+------+-
+-+-+++-+

Generation = 88, Population = 40.
----++-+-
---++-+-+
-----+++-
-++----++
----+-+-+
+-+-++++-
--+-+-+++
-+-++++--
+----++--
+---+-+-+

Generation = 92, Population = 42.
++-+++---
---++++-+
-+-+-+++-
+-----++-
--+----+-
++--+-++-
--+++++--
-+--+++--
++---+---
-+++--++-

Generation = 96, Population = 49.
++-++-+++
--+++++-+
++-+-++-+
-+-+-++++
+---+-++-
+-++----+
--++-+---
-+-+-+---
++--+--+-
-+++--+++

*** Life<FredkinCell> 15x2 ***

Generation = 0, Population = 21.
00
--
0-
0-
00
0-
0-
0-
00
00
00
00
--
00
00

Generation = 12, Population = 14.
-4
-0
6-
-2
--
--
-2
44
4-
61
-3
--
-2
--
20

Generation = 24, Population = 15.
+-
-1
+-
52
-+
-1
3-
6-
74
--
-6
4-
--
+-
5-

Generation = 36, Population = 16.
+-
4-
++
--
++
-2
4+
++
--
+-
+-
-6
--
+2
--

Generation = 48, Population = 21.
++
--
+-
9-
++
6-
6-
+-
+9
+3
++
96
--
+3
+6

Generation = 60, Population = 14.
-+
-3
+-
-8
--
--
-+
++
+-
+4
-+
--
-8
--
+6

Generation = 72, Population = 15.
+-
-4
+-
+8
-+
-4
9-
+-
++
--
-+
+-
--
+-
+-

Generation = 84, Population = 16.
+-
+-
++
--
++
-5
++
++
--
+-
+-
-+
--
+5
--

Generation = 96, Population = 21.
++
--
+-
+-
++
+-
+-
+-
++
+6
++
++
--
+6
++

*** Life<FredkinCell> 17x16 ***

Generation = 0, Population = 22.
----------------
0-0--------0----
----------------
--------0------0
-----0----------
0------------0--
----0---0-------
----------------
-------0--------
--------------0-
--------0----0--
-------0------0-
------0---------
-------------0--
--------------0-
----0-----------
-----0--------0-

Generation = 12, Population = 137.
00-1401----11---
1-0235523-3-123-
030----14-----01
--1-23----261-3-
-10-2--2240---0-
61536-0-3-201-42
--5-363---10-3--
----3-1-100---42
1----73--113--3-
3-0-1-142-53-210
1------12---5--5
0-----404-1-----
--2-4114313---52
60--1-30-012---5
-1--1--2--013---
1-201--3---12---
1001--2-1--34-1-

Generation = 24, Population = 99.
-3--8---412-5---
--2-8+------665-
1--3-4-3-653----
66--46----3-4---
32-35------4-722
-77+-3---7-74---
----8-------8-43
------2-2---3---
42-------7--5---
---25-2----533--
3342--6------4-8
5-------94--4-24
3-3--2--94-235--
--2-4----025-4--
-6----24--2-42--
----3--52---6--4
-----7---66----3

*** Life<FredkinCell> 6x12 ***

Generation = 0, Population = 29.
--0-00---00-
0--0--0-00--
-0----0---0-
0---0--00-00
000-0--0-0--
--0--0-0---0

Generation = 4, Population = 42.
311-14012--1
1-21--4-211-
-0--1-1--04-
2--3-12-112-
1-0222101-0-
00--0----11-

Generation = 8, Population = 39.
523---1--322
332501412--0
----12-2----
4---2142--44
-------0101-
24--221-3-21

Generation = 12, Population = 40.
54---6-23-44
--4--3626--1
--11--3-0-8-
---5-5-4--4-
112644-03-33
6842-335--4-

Generation = 16, Population = 37.
66325-----6-
--6-3-+3+---
-21-35--2-+2
8-2--7---5-7
----65--5-47
6-6-6435556-

Generation = 20, Population = 41.
----57-35-6-
7-6634+-+4-4
4431-5-24---
-0------1678
--596985--47
6+-28-37---3

Generation = 24, Population = 28.
---2-----7--
--7---+3-516
5-537-5-65+2
9--6-----6+-
-4----+-----
--7---3-87-5

Generation = 28, Population = 38.
+86399-9898-
9-8+-6--+95-
---7-8--8--2
----4+-816+-
--6+-9+--27-
---597---+7-

Generation = 32, Population = 41.
---4--5+---7
-9--46-5++68
9-5+-8-6+6+-
+2----6-3---
--7-8++-63-+
-+96+94-9+87

Generation = 36, Population = 40.
+-+-+-7+-+--
+-9-5---+-8-
+96--++--8+5
--698-7-58-8
-6-+--+--39+
8-+--+499+9-

Generation = 40, Population = 34.
+-+-+-+-+-8-
--+-78+6+++-
--7---+--8-5
+---+--+---9
2--++-+6-4+-
-+---+6---98

Generation = 44, Population = 41.
+-+4+--++-+9
---+-+-6---8
----++-7+9-6
+89+++9+8++-
6-+-+++--5--
9------9++9+

Generation = 48, Population = 34.
+--6--++-++-
++---+--++++
-9+--+----+8
+--+------++
-6-++--8----
++-7++-++--+

Generation = 52, Population = 39.
--+---+---++
--++8-+--+-+
---+-++--+--
++++-+++++++
---++++987++
+++------+-+

Generation = 56, Population = 39.
+-+-+---++++
++++++--++++
-+---+++-+--
-+++-----+-+
69----++-7--
--+--+8-++++

Generation = 60, Population = 39.
+-+----+++++
+++++-+-+-++
+--++---+--+
+++--+--+-+-
--++--+++--+
-++----++-++

*** Life<FredkinCell> 2x12 ***

Generation = 0, Population = 20.
000-0-000000
000--0000000

Generation = 2, Population = 16.
0200010-22-0
02-----222-0

Generation = 4, Population = 16.
0-000-2---12
-201-21-4212

Generation = 6, Population = 13.
040222---21-
0-21----6--2

Generation = 8, Population = 17.
0-24--4-2432
24-1041-622-

Generation = 10, Population = 12.
25-4-3-12--4
---1--1-64-2

Generation = 12, Population = 13.
--36-36-2-5-
-6-314-4--24

Generation = 14, Population = 12.
365----32---
--33142-6-2-

Generation = 16, Population = 16.
56-63475267-
36--1-458---

Generation = 18, Population = 13.
---8-4974--6
-6-3-547-53-

Generation = 20, Population = 11.
-7--44----8-
---52567--55

Generation = 22, Population = 12.
-76-44+95-+-
-74--7----5-

Generation = 24, Population = 14.
67--6-+-76--
474-39-99-7-

Generation = 26, Population = 11.
-7-+--++-8+6
496------7--

Generation = 28, Population = 12.
----8-+--8+8
6+-63--+-9-7

Generation = 30, Population = 8.
--6----+--+8
----3-6--+-9

Generation = 32, Population = 11.
6-6-+5-+8-+-
--8----++--+

Generation = 34, Population = 12.
6-8+-----8--
8-+-4+7++-7-

Generation = 36, Population = 15.
88-++7-+-8-8
+-+86-7-++--

Generation = 38, Population = 18.
---++9++-+-8
++++6+7+-+8+

Generation = 40, Population = 16.
-+8--+-+8+-+
+-++8+-+-+8+

Generation = 42, Population = 20.
8+8-+-++8+++
+++--+8+++8+

Generation = 44, Population = 16.
8+8++++-++-+
++-----+++-+

Generation = 46, Population = 16.
8-8++-+---++
-+++-+9-++9+

Generation = 48, Population = 13.
8+8+++---++-
+-++----+--+

Generation = 50, Population = 17.
8-++--+-++++
++-+8+9-+++-

Generation = 52, Population = 12.
++-+-+-++--+
---+--9-++-+

Generation = 54, Population = 13.
--++-++-+-+-
-+-+9+-+--++

Generation = 56, Population = 12.
+++----++---
--++9++-+-+-

Generation = 58, Population = 16.
++-++++++++-
++--9-+++---

Generation = 60, Population = 13.
---+-++++--+
-+-+-+++-++-

Generation = 62, Population = 11.
-+--++----+-
---+++++--++

Generation = 64, Population = 12.
-++-+++++-+-
-++--+----+-

Generation = 66, Population = 14.
++--+-+-++--
+++-++-++-+-

Generation = 68, Population = 11.
-+-+--++-+++
+++------+--

Generation = 70, Population = 12.
----+-+--+++
++-++--+-+-+

Generation = 72, Population = 8.
--+----+--++
----+-+--+-+

Generation = 74, Population = 11.
+-+-++-++-+-
--+----++--+

Generation = 76, Population = 12.
+-++-----+--
+-+-+++++-+-

Generation = 78, Population = 15.
++-+++-+-+-+
+-+++-+-++--

Generation = 80, Population = 18.
---+++++-+-+
++++++++-+++

*** Life<FredkinCell> 8x14 ***

Generation = 0, Population = 36.
-----0-----00-
0--000--0-----
---0-000--00--
-0-0----0-0---
000------0----
0-0-0----0-0-0
--00---0--0---
0---0---00----

Generation = 8, Population = 52.
-12-1--0215--4
31-2--0-------
--21---5---3--
-6--03--1---23
3-211--32-----
4-55--4522-30-
--2-3-51--0212
-022210----3--

Generation = 16, Population = 56.
755---4--57-9-
-2-54-11---33-
4--34-2-16--3-
---2-56-5--4--
--36--3---7--7
73-630--534---
12--92-5--626-
--55613---3644

Generation = 24, Population = 56.
--6-4-85-9+-+-
-4--684--4----
5----7-8---66+
4---2-9---5-57
---+-5-546+499
+5-66-78-56-13
--6--4+-7---8-
4--7946-52---7

Generation = 32, Population = 61.
9++--6+----+-+
845----59938-+
-69-69----68-+
5+-558+--98-6-
--5+37-5----9-
---7+4++------
477-+4+-87-5+-
-4+++--786---9

Generation = 40, Population = 55.
--+5-9-8-+++++
+--9++-+-+-+7-
8---9-3-7+-+++
-+-758+7-----9
--+----+6----+
++--+6+++----6
7-87+8-----+-9
---++---+--+--

Generation = 48, Population = 59.
+--8+--+++-+-+
+7++++-+-+-+8+
+++---6-9+----
-++----+++-++-
--+--++--++8-+
+-9----++--786
9+-+-----+-+++
--+++6-+----8-

Generation = 56, Population = 61.
--++-++++--++-
+-++++8++-9+++
+-+++---++-+--
---9-9--+++++-
-+++5--++++---
----+-+++++-+-
--++-------+-+
8---++-+++8--+

Generation = 64, Population = 60.
-+++----+++-++
++-----+-+-+++
+-+---9+---+-+
+-++-9++++++++
---+8+-+-+++-+
+++---+++++9--
+-----+---+++-
--+++-------9+

Generation = 72, Population = 52.
-+++--++++++--
+-------+++-+-
--------+-+-+-
-+++--++-+---+
+-++8-++----+-
----+-----++++
-++-+--++--++-
+7++-+--+++--+

Generation = 80, Population = 57.
-----+-++--+-+
---+-++-+++---
-++++-+---+++-
+-+---+----+++
----+--++--+++
+++-+++--+---+
++---+++++++++
--+++-++--+--+

*** Life<FredkinCell> 11x18 ***

Generation = 0, Population = 37.
0-0----0----------
0-000---0------000
---------------0--
-------00-0-------
---0--0----0--000-
------00---0------
------------0-0---
----0-------0-----
------0--0----0--0
---0---0----0-----
------------0--0--

Generation = 8, Population = 78.
----2---101-1--2-1
4-0-2--1-11000--0-
---2--15---2235-4-
2-1----42-3----11-
1-----232--4-1---1
--152--22---2-3-3-
0-0-1--0-3------10
--2-------------1-
-33---32-1-22-2--2
2-1---331--------0
---02-41---2-50---

Generation = 16, Population = 83.
------52-4---12-52
82--64----5-2-4--3
---5-44----43-7-8-
----4-4-2---30----
---3373-45-44-7--4
1-264----5--223383
-------333----1--4
--3-3---1-2-6---5-
-755-6524--56-----
2--14-6------1-65-
--43-27-3--3--2-8-

Generation = 24, Population = 82.
5-57----6-----4---
-32-+74-43-1-5--56
746---6-47-6-6----
--3--55-7----245--
----3-4-66---5----
--+---3+-7--4-----
2-28-87-7---94-8--
2-5-5-------+---5-
-+---++-632+--6377
51----65-334--9-9-
-5----8--71359----

Generation = 32, Population = 91.
-38-8---85--77---2
+8-2+---5---+9-8--
---7--7--+-+7-+8+-
-15-7--5+-8--35-6-
86---8--8-6---+576
-7+-+6-+3----4-5+-
6-8----885----6-58
6---6-7---5-+-----
--+8---8+--+-283+-
9-339--+76-7-2-++9
---+-----+-6--3++-

Generation = 40, Population = 84.
-4++-----97-+7----
-96-++77+---++-+-+
---86+8+-+9-8+--+8
+47---+7-+---7----
996--+55---+--+-7-
1---+---9-9++----9
+--+---8--+-------
--------2-7---8-7-
-+---++-+-7+-----+
-+-3+-+--64-44----
+--+-7-4-+6--+5--6

Generation = 48, Population = 103.
+-+--++9+++----++-
+-66--+++5+-+++--+
+9+-9+8-+-++--+---
--7-9--8+-+--++--8
-+-+-+9--++--9+67+
3-+-++++--+++--+--
-----+---9--+5-+-+
+-9---+---8-+-----
6--+-+-+-5-++-+-++
--74+5++-87-84+-++
+6--8+--+-9++-----

Generation = 56, Population = 102.
+-+++-+---++++---7
++7--+--+-++-++++-
++---+9---++--++--
+-+--+++++-+6+--++
+--+---++-----+9-+
-+-+++++--+-+-6+-+
--+++++++++-+-+-+-
--------3---+-+-+-
9-+-+-+++++---+5-+
+---+-+---99--+++-
-8+--++----++--++-

Generation = 64, Population = 80.
---+--+-+++---8---
--8-++---8++--++--
------9--+-++-+-+-
+-++---++-+---+-++
--++---++++-9+-+--
7-++---++---++-++-
------++-++-+-+--+
+---+-+---------+-
++--++----+-+-+6--
--+-+-+-+--++---+-
+-----+--+-++-+-+-

Generation = 72, Population = 97.
+-++++-+-+-+---++-
+---------++++++--
-++-+--+--++++++--
----+--+++--+--+-+
-+++-+-+--++-+---+
9--+---+++-+-++++-
--++-+--+--++---++
--+-+---------+-+-
-+-+++---+----+-++
+-+-+6-+-+-+++--++
+++-+-+6+-++++++--

Generation = 80, Population = 92.
-+----+++++-+-9+--
-------+----++--+-
+---++-++++--+-++-
+++-----+--+-+----
+++-+-+-+-+--+---+
+++-+----+++++-+-+
--+----+++++++++--
------+-7-+-----+-
+-++++++-+--+++8--
--+--++++--+++----
----++-++++--+++--

Generation = 88, Population = 98.
++++---+++++-+-+-+
++----++-++-+--+++
-++------+----+++-
-++++-+--+++-+-+++
+---+-+-+-+++--+--
-+++-+-+--+-++-+--
----+-+++-----+---
--+---+---+-+-+---
++-+-++++-+-++--++
+-++++-+-+-+-++++-
+++------+--+-++--

Generation = 96, Population = 92.
--++-++++---+-+--+
--+--+++-++--+-+-+
--+--+-+---+++---+
+-++--++++-+--+-++
+--++-+++----++-++
----++++-+--+++-++
-----+---+-+------
+-----------+-+-+-
+--------++++--+-+
+--++-++-+++-++-++
+-+-++++---+++---+

*** Life<FredkinCell> 8x5 ***

Generation = 0, Population = 22.
-0--0
0--00
--0--
000-0
-0000
--000
0---0
0--00

Generation = 11, Population = 18.
-12--
02---
33--4
93---
---6-
----3
33-42
1-1-2

Generation = 22, Population = 22.
2-55-
16+--
8-+--
+--7-
6-7-5
-7--8
6-+8-
+4-56

Generation = 33, Population = 18.
---9-
5--7+
-7-9-
+-6--
7--+6
-877+
--+--
+--5-

Generation = 44, Population = 24.
4---5
-+++-
+-+++
++8--
98-+-
-+--+
++++-
--15+

Generation = 55, Population = 19.
-++--
8-+-+
+-+++
+-9--
-----
++--+
++--+
+-1--

Generation = 66, Population = 19.
6-+--
-+++-
+-+++
+--+-
---+-
+-+-+
---++
-+--+

Generation = 77, Population = 20.
-+-+-
--+++
++-++
-+---
+++-+
-+--+
---+-
++-+-

Generation = 88, Population = 21.
7-++8
--+++
-+--+
++-++
--++-
--+++
--+--
-+--+

Generation = 99, Population = 20.
---+-
+-+--
-+++-
++---
-+++-
++--+
++--+
++--+
