*** Life<ConwayCell> 27x7 ***

Generation = 0, Population = 57.
.*..*..
*...**.
..**...
*....*.
.......
.**....
..*.*.*
**....*
****..*
.***..*
****...
.*.*...
.......
...*..*
.*.....
.*.....
*.*..*.
..*...*
...**..
*.*..*.
......*
*..***.
..*.*.*
.......
.....*.
.*...*.
.......

Generation = 19, Population = 4.
.......
.......
.......
.......
**.....
**.....
.......
.......
.......
.......
.......
.......
.......
.......
.......
.......
.......
.......
.......
.......
.......
.......
.......
.......
.......
.......
.......

*** Life<ConwayCell> 6x23 ***

Generation = 0, Population = 69.
*.***.*...*.*...**.*..*
.....***..*.**.***.**.*
.*****...*..****.**..*.
.*.**.*.*.*.**.*.*..**.
.**...*****..*..*...***
**...*..*..*.**.....*.*

Generation = 17, Population = 14.
.........**............
.........*..*..........
..........***..........
...........*...........
.................*..*..
.................****..

Generation = 34, Population = 24.
...........*...........
.........***...........
......**.*.*...........
...........*...**......
..........**..*..*..*..
..........**..**.****..

*** Life<ConwayCell> 17x16 ***

Generation = 0, Population = 68.
**....*..*....*.
.*...*........*.
...*.****.......
......*.........
*.*.......**....
*..*.**......*..
.*..**...**..*.*
..*...........*.
.......****..*..
...*......**....
....*..***......
***........*.*..
.*.....*.......*
....*..*.....**.
........*.*.....
.*.....*...*.*..
*..*..*.*.*....*

Generation = 2, Population = 65.
*.*.............
*.*****.........
.*.*...*........
.......*........
.**....*........
*......*....**..
.*....*.........
..****...**.***.
.........****...
..*.............
*..*....*.***...
........*..*.*..
*.*....**....*..
.*.....**.....*.
......*....****.
......*..*.***..
.......**.......

Generation = 4, Population = 71.
...**.*.........
.**.............
***.....*.......
**...*..........
***..*..........
*...*...*.......
.......*....**..
......*...****..
..*.**......**..
.........*..*...
.........*..*...
........*.....*.
***....******.*.
........*.***.**
.....**.*.**.***
......*.*.*.**..
.......***.*....

Generation = 6, Population = 34.
................
................
................
................
................
................
......*.........
.....**.........
.....**....*....
.........****...
........*..*.*..
.......*....*...
***...**.....*..
.....**.........
................
.....*....***...
......*******...

Generation = 8, Population = 26.
................
................
................
................
................
................
......*.........
.......*........
......*.........
........***.*...
.........*..**..
......*..*..**..
***..*..........
....*..*........
........*.......
.........*.**...
......*..*......

Generation = 10, Population = 18.
................
................
................
................
................
................
................
......**........
......*....**...
.......*..***...
.........**.....
................
***.............
................
........*.......
........*.*.....
..........*.....

Generation = 12, Population = 11.
................
................
................
................
................
................
................
......**........
......**...*....
.........*......
.........**.....
................
***.............
................
................
................
................

Generation = 14, Population = 11.
................
................
................
................
................
................
................
......*.*.......
......*..*......
..........*.....
........***.....
................
***.............
................
................
................
................

Generation = 16, Population = 12.
................
................
................
................
................
................
................
........*.......
.......*.*......
........*.*.....
........*.*.....
.........**.....
***.............
................
................
................
................

Generation = 18, Population = 15.
................
................
................
................
................
................
................
........*.......
.......*.*......
.......*..**....
.......**..*....
.........***....
***.............
................
................
................
................

Generation = 20, Population = 18.
................
................
................
................
................
................
................
........**......
......**...*....
......*....*....
......*.....*...
.......**.**....
***.......**....
................
................
................
................

Generation = 22, Population = 27.
................
................
................
................
................
................
................
......*.**......
.....*..**.*....
.....*...**.*...
.....***.**.**..
........*...*...
***.....**.*....
..........*.....
................
................
................

Generation = 24, Population = 30.
................
................
................
................
................
................
........**......
.......****.....
....**...****...
....*...*....*..
....*..*......*.
.....**.*....*..
***.....*..**...
........*..*....
................
................
................

Generation = 26, Population = 33.
................
................
................
................
................
................
................
.......**..*....
...*****.*...*..
...*.....**...*.
...**.*...*...*.
.....**....*..*.
***....****.....
..........***...
................
................
................

Generation = 28, Population = 31.
................
................
................
................
................
................
................
...*...**.......
...*......*.....
..*........***.*
.*....*....*.*.*
.*.........*.**.
**.**.*.....*...
........*.***...
..........**....
................
................

Generation = 30, Population = 21.
................
................
................
................
................
................
................
................
..**......***...
................
.**..........*..
...........**.*.
***......**.**..
.*..............
.........**.....
................
................

Generation = 32, Population = 18.
................
................
................
................
................
................
................
................
..........**....
...........*.*..
..........*..*..
*.........*...*.
..*.......*.**..
*.*........**...
.*..............
................
................

Generation = 34, Population = 14.
................
................
................
................
................
................
................
...........*....
..........***...
................
.........*....*.
.........*....*.
.........**...*.
...........*.*..
............*...
................
................

Generation = 36, Population = 21.
................
................
................
................
................
................
...........*....
..........*.*...
.........*......
..........*.*...
.........**...*.
........***..*.*
........*......*
.........**...*.
............**..
................
................

Generation = 38, Population = 19.
................
................
................
................
................
................
..........**....
.........*.*....
.........*......
..........**....
..........**..*.
.......**......*
........*......*
.............**.
.............**.
................
................

Generation = 40, Population = 24.
................
................
................
................
................
................
..........**....
.........*.**...
........**.**...
........**.**...
...........*....
.......*......**
.......*.*.....*
.............*.*
.............**.
................
................

*** Life<ConwayCell> 15x20 ***

Generation = 0, Population = 2.
....................
....................
................*...
....................
....................
....................
....................
....................
....................
...*................
....................
....................
....................
....................
....................

Generation = 11, Population = 0.
....................
....................
....................
....................
....................
....................
....................
....................
....................
....................
....................
....................
....................
....................
....................

Generation = 22, Population = 0.
....................
....................
....................
....................
....................
....................
....................
....................
....................
....................
....................
....................
....................
....................
....................

Generation = 33, Population = 0.
....................
....................
....................
....................
....................
....................
....................
....................
....................
....................
....................
....................
....................
....................
....................

*** Life<ConwayCell> 12x14 ***

Generation = 0, Population = 19.
*.*...........
..............
.......**.....
........*...*.
..*..........*
.............*
..............
.....*........
.......*.*....
*...........*.
...*..*.......
....*...*..*..

Generation = 2, Population = 4.
..............
..............
.......**.....
.......**.....
..............
..............
..............
..............
..............
..............
..............
..............

Generation = 4, Population = 4.
..............
..............
.......**.....
.......**.....
..............
..............
..............
..............
..............
..............
..............
..............

Generation = 6, Population = 4.
..............
..............
.......**.....
.......**.....
..............
..............
..............
..............
..............
..............
..............
..............

Generation = 8, Population = 4.
..............
..............
.......**.....
.......**.....
..............
..............
..............
..............
..............
..............
..............
..............

Generation = 10, Population = 4.
..............
..............
.......**.....
.......**.....
..............
..............
..............
..............
..............
..............
..............
..............

Generation = 12, Population = 4.
..............
..............
.......**.....
.......**.....
..............
..............
..............
..............
..............
..............
..............
..............

Generation = 14, Population = 4.
..............
..............
.......**.....
.......**.....
..............
..............
..............
..............
..............
..............
..............
..............

Generation = 16, Population = 4.
..............
..............
.......**.....
.......**.....
..............
..............
..............
..............
..............
..............
..............
..............

Generation = 18, Population = 4.
..............
..............
.......**.....
.......**.....
..............
..............
..............
..............
..............
..............
..............
..............

Generation = 20, Population = 4.
..............
..............
.......**.....
.......**.....
..............
..............
..............
..............
..............
..............
..............
..............

Generation = 22, Population = 4.
..............
..............
.......**.....
.......**.....
..............
..............
..............
..............
..............
..............
..............
..............

Generation = 24, Population = 4.
..............
..............
.......**.....
.......**.....
..............
..............
..............
..............
..............
..............
..............
..............

Generation = 26, Population = 4.
..............
..............
.......**.....
.......**.....
..............
..............
..............
..............
..............
..............
..............
..............

Generation = 28, Population = 4.
..............
..............
.......**.....
.......**.....
..............
..............
..............
..............
..............
..............
..............
..............

Generation = 30, Population = 4.
..............
..............
.......**.....
.......**.....
..............
..............
..............
..............
..............
..............
..............
..............

Generation = 32, Population = 4.
..............
..............
.......**.....
.......**.....
..............
..............
..............
..............
..............
..............
..............
..............

Generation = 34, Population = 4.
..............
..............
.......**.....
.......**.....
..............
..............
..............
..............
..............
..............
..............
..............

Generation = 36, Population = 4.
..............
..............
.......**.....
.......**.....
..............
..............
..............
..............
..............
..............
..............
..............

Generation = 38, Population = 4.
..............
..............
.......**.....
.......**.....
..............
..............
..............
..............
..............
..............
..............
..............

Generation = 40, Population = 4.
..............
..............
.......**.....
.......**.....
..............
..............
..............
..............
..............
..............
..............
..............

Generation = 42, Population = 4.
..............
..............
.......**.....
.......**.....
..............
..............
..............
..............
..............
..............
..............
..............

Generation = 44, Population = 4.
..............
..............
.......**.....
.......**.....
..............
..............
..............
..............
..............
..............
..............
..............

Generation = 46, Population = 4.
..............
..............
.......**.....
.......**.....
..............
..............
..............
..............
..............
..............
..............
..............

Generation = 48, Population = 4.
..............
..............
.......**.....
.......**.....
..............
..............
..............
..............
..............
..............
..............
..............

Generation = 50, Population = 4.
..............
..............
.......**.....
.......**.....
..............
..............
..............
..............
..............
..............
..............
..............

*** Life<ConwayCell> 26x24 ***

Generation = 0, Population = 90.
..........**..*........*
.....**.........*.......
.............*.*..*...*.
.....*.**.....*....*....
..............*.*......*
............*.*.....*..*
...........*...*........
...........*...........*
....*........***...*...*
..............*.....*...
..*.....*....*.....*....
.......*.*......*.......
......*.........*.......
*...............*.......
.*.........*...*........
..*.............*.......
.......*.**.....**..*...
..*..*.*.......*...*....
......**..*.............
............*...*..*....
.....*.*................
*......*.*...*...*.....*
*..***...*........*.....
.........*..............
.......*.*............**
...*.............*.*....

Generation = 9, Population = 62.
........................
........................
........................
........................
.........*.*..**........
.........*..**..*.......
.........*.*....*.......
........................
...............*.*......
..................*.....
.......**...............
.......**......*........
..............***.......
.............**.........
............***.........
.............**.........
........***..*****......
.........**...**.**.....
................*.......
....**..................
...****.................
..**.**.................
...*.......*............
....*......**...........
..........**............
..........*.............

Generation = 18, Population = 73.
........................
........................
........................
........................
.........**.............
........*..*............
.........**.............
........................
..............***.......
................*.......
.......**.......*.......
.......**......*.**.....
............***.***.....
...........*.**.........
...........*.**.........
............**....**....
...................**...
..............**..**....
..............*..**.....
.**...........*..*......
*.*............***......
*..........**...........
*.*.......***.*.........
.**......*....***.......
..........***.*.........
...........**...........

Generation = 27, Population = 73.
........................
........................
........................
........................
.........**.............
........*..*............
.........**.............
..............***.......
..............*.........
................*.......
........**.*.*..........
............**..*.......
........*......*.*......
.........**.**...*......
............*..**.......
............*...*.....**
.............***..***..*
.............*.......*.*
.................*.*.**.
.**..............***....
*.*.............*..*....
*...............*.*.....
*.*....**........*......
.**.......**............
.......*....*...........
........**.*............

*** Life<ConwayCell> 11x12 ***

Generation = 0, Population = 49.
.****...*...
.*.**.***...
***.*..*...*
...*...*...*
...*.***..*.
..***.*.*..*
.*....*....*
*..**....**.
*....*...*..
**..*....*..
*..*...*....

Generation = 4, Population = 31.
............
....***.*...
.....*...**.
..**.*...**.
............
.********...
*.**.**..*..
.....*......
.....**.....
........**..
............

Generation = 8, Population = 14.
.....***....
...*.....*..
....**....**
.....*..*.**
.........*..
............
............
............
............
............
............

Generation = 12, Population = 7.
............
.....*......
......*...**
.....*....**
............
............
............
............
............
............
............

Generation = 16, Population = 4.
............
............
..........**
..........**
............
............
............
............
............
............
............

*** Life<ConwayCell> 18x22 ***

Generation = 0, Population = 67.
....*...**.........***
.................*....
.....*.*..*.*.........
.*..*...*..*..*.*.*...
.......**......*......
........*.............
.....*..........*....*
*.*.*........*....*...
..................**..
..*.........*...*.*.*.
.*.*..................
.........*...*......*.
.................*.**.
..*...*.....***...*...
*...................*.
.....*...**........*..
............*.........
*.*...**.*..**....**..

Generation = 2, Population = 42.
......................
......................
.......*..............
.........*......*.....
......*...*...........
.......*.*............
..................*...
.................***..
..*...................
.***.............***..
...................**.
......................
.............*....*..*
............***...*.*.
...................*..
.........***.*....**..
.........***.*........
.........**..*........

Generation = 4, Population = 43.
......................
......................
......................
.........*............
.........*............
.........*........*...
.................*.*..
..*..............*.*..
.*.*.............*..*.
..................*.*.
.***.................*
.............*....*...
............*.*...*...
...............*....*.
..........**..*...*.*.
.........*.****....*..
........**.*.*........
............**........

Generation = 6, Population = 45.
......................
......................
......................
.........*............
.........*............
.........*........*...
................**.**.
................**.**.
.***............**....
.*.*..............**.*
.***...............*..
.............**.......
...............*......
..........**..........
.........****.........
........*..*..**......
........***.**........
............*.........

Generation = 8, Population = 50.
......................
......................
......................
.........*............
.........*........*...
.........*.......***..
................**..*.
..*............**..**.
.***............**....
**.**............*..*.
.***.............*..*.
..*................*..
.............*........
.............*........
........**...*........
........*.***.*.......
........*.*...*.......
........**.*..*.......

Generation = 10, Population = 59.
......................
......................
......................
.........*........*...
.........*.......***..
.........*......**.**.
..*............**.*.*.
.***..........**.*...*
*.*.*...............*.
**.***..........*.....
*.*.*............***..
.***...............*..
..*..........*........
.........****.*.......
.......**......*......
......................
............*.**......
.......***............

Generation = 12, Population = 49.
......................
......................
..................*...
.........*.......***..
.........*......***.*.
..*......*.....*....*.
..*...........*.*.*...
.**...........*..***.*
..............**......
**..***............*..
.................*..*.
.**........**......*..
..*...........*.......
..*.....*.....*.......
........*......*......
........*.*...........
......................
......................

Generation = 14, Population = 44.
......................
..................*...
.................**...
.........*......*.**..
.........*.....***....
.........*.....**.....
.***.........**.*.....
.............*..*.....
..*..........*****.**.
....***...........*...
..*................*..
...................*..
.***..........*.......
..............*.......
........*.............
........*.............
......................
......................

Generation = 16, Population = 27.
......................
......................
..................*...
.........*............
.........*............
.........*.......*....
.***.........*........
..*.........*.........
..*..........*.....*..
.....**......*......*.
..*............**.**..
..*...................
.***..................
......................
......................
......................
......................
......................

Generation = 18, Population = 24.
......................
......................
......................
.........*............
.........*............
.***.....*............
.***..................
..*.........**........
............*.*.......
.............*.....*..
...................*..
..*...................
.***..................
.***..................
......................
......................
......................
......................

Generation = 20, Population = 20.
......................
......................
......................
.........*............
..*......*............
..*......*............
.*.*..................
..*.........**........
..*.........*.*.......
.............*........
..*...................
..*...................
.*.*..................
..*...................
..*...................
......................
......................
......................

Generation = 22, Population = 24.
......................
......................
......................
.........*............
..*......*............
.*.*.....*............
*...*.................
.*.*........**........
..*.........*.*.......
.............*........
..*...................
.*.*..................
*...*.................
.*.*..................
..*...................
......................
......................
......................

Generation = 24, Population = 32.
......................
......................
......................
.........*............
.***.....*............
*...*....*............
*...*.................
*...*.......**........
.***........*.*.......
.............*........
.***..................
*...*.................
*...*.................
*...*.................
.***..................
......................
......................
......................

Generation = 26, Population = 32.
......................
......................
......................
.***.....*............
.........*............
*....*...*............
*....*................
*....*......**........
.***........*.*.......
.............*........
.***..................
*....*................
*....*................
*....*................
......................
.***..................
......................
......................

Generation = 28, Population = 44.
......................
......................
......................
..**.....*............
.**......*............
*.*..*...*............
**.***................
*.*.*.......**........
.***........*.*.......
.............*........
.***..................
*.*.*.................
**.***................
*.*..*................
.**...................
..**..................
......................
......................

Generation = 30, Population = 36.
......................
......................
..*...................
..*......*............
.**......*............
.........*............
**..***...............
*.*.*.......**........
.**.........*.*.......
.............*........
.**...................
*.*.*.................
**..***...............
......................
.**...................
..*...................
..*...................
......................

Generation = 32, Population = 32.
......................
......................
......................
.***.....*............
.........*............
*....*...*............
*....*................
*....*......**........
.***........*.*.......
.............*........
.***..................
*....*................
*....*................
*....*................
......................
.***..................
......................
......................

Generation = 34, Population = 44.
......................
......................
......................
..**.....*............
.**......*............
*.*..*...*............
**.***................
*.*.*.......**........
.***........*.*.......
.............*........
.***..................
*.*.*.................
**.***................
*.*..*................
.**...................
..**..................
......................
......................

Generation = 36, Population = 36.
......................
......................
..*...................
..*......*............
.**......*............
.........*............
**..***...............
*.*.*.......**........
.**.........*.*.......
.............*........
.**...................
*.*.*.................
**..***...............
......................
.**...................
..*...................
..*...................
......................

Generation = 38, Population = 32.
......................
......................
......................
.***.....*............
.........*............
*....*...*............
*....*................
*....*......**........
.***........*.*.......
.............*........
.***..................
*....*................
*....*................
*....*................
......................
.***..................
......................
......................

*** Life<ConwayCell> 8x17 ***

Generation = 0, Population = 61.
..**...**...***.*
.....****.****...
...........**....
....*..*........*
.*.*.***.****.*..
.....*.*.***.*.**
.***..*.**.**.*..
**..****.*******.

*** Life<ConwayCell> 1x4 ***

Generation = 0, Population = 4.
****

Generation = 2, Population = 0.
....

Generation = 4, Population = 0.
....

Generation = 6, Population = 0.
....

Generation = 8, Population = 0.
....

Generation = 10, Population = 0.
....

Generation = 12, Population = 0.
....

Generation = 14, Population = 0.
....

Generation = 16, Population = 0.
....

Generation = 18, Population = 0.
....

Generation = 20, Population = 0.
....

Generation = 22, Population = 0.
....

*** Life<ConwayCell> 2x12 ***

Generation = 0, Population = 19.
**.****.****
*...********

Generation = 20, Population = 4.
**..........
**..........

Generation = 40, Population = 4.
**..........
**..........

*** Life<ConwayCell> 26x7 ***

Generation = 0, Population = 74.
*..**..
*.*...*
.*.**.*
..**..*
.*..**.
..*****
.*..**.
.**..*.
...*...
.*...*.
......*
**..*.*
****...
...****
*.*.*.*
*.*....
***....
*....*.
**..*..
****...
*......
...*...
.*.....
**...*.
*.*...*
****...

Generation = 15, Population = 38.
...**..
...**..
.......
.......
.......
.......
**.....
.......
.*..*..
....**.
.*..*..
..**...
.**....
*.*..*.
.....*.
*.*..*.
.**....
..**...
.......
.......
.......
.......
....**.
**....*
*......
.*****.

Generation = 30, Population = 33.
...**..
...**..
.......
.......
.......
.......
.......
.......
....*..
...***.
..*.*.*
.....**
..**..*
.....**
.......
.......
.....*.
.....*.
*.*..*.
.**....
..**...
.......
.*.....
**.....
*.*....
.*.....

*** Life<ConwayCell> 5x5 ***

Generation = 0, Population = 23.
.****
*****
*****
*****
**.**

Generation = 11, Population = 0.
.....
.....
.....
.....
.....

*** Life<ConwayCell> 12x5 ***

Generation = 0, Population = 39.
..**.
*..*.
**.**
*.**.
***..
*...*
*.*.*
.****
**.**
****.
**.**
***.*

*** Life<ConwayCell> 2x16 ***

Generation = 0, Population = 31.
*****.**********
****************

Generation = 2, Population = 0.
................
................

Generation = 4, Population = 0.
................
................

Generation = 6, Population = 0.
................
................

Generation = 8, Population = 0.
................
................

Generation = 10, Population = 0.
................
................

Generation = 12, Population = 0.
................
................

Generation = 14, Population = 0.
................
................

Generation = 16, Population = 0.
................
................

Generation = 18, Population = 0.
................
................

Generation = 20, Population = 0.
................
................

Generation = 22, Population = 0.
................
................

Generation = 24, Population = 0.
................
................

Generation = 26, Population = 0.
................
................

Generation = 28, Population = 0.
................
................

Generation = 30, Population = 0.
................
................

Generation = 32, Population = 0.
................
................

Generation = 34, Population = 0.
................
................

Generation = 36, Population = 0.
................
................

Generation = 38, Population = 0.
................
................

Generation = 40, Population = 0.
................
................

*** Life<ConwayCell> 7x25 ***

Generation = 0, Population = 64.
.........**...**.....*...
..*.**...*.....*.***.....
..**...*..*...*.*..*.**..
*.*..*.......*.*.**...*..
..*.***.**.*..*.**..*.*..
..*...**.**.....*..***.**
..*..*.****....*..**...**

*** Life<ConwayCell> 17x15 ***

Generation = 0, Population = 7.
...............
*..............
...............
...............
..........*....
...............
..............*
...............
........*......
...............
.....*.........
...............
.......*.......
...............
......*........
...............
...............

Generation = 5, Population = 0.
...............
...............
...............
...............
...............
...............
...............
...............
...............
...............
...............
...............
...............
...............
...............
...............
...............

Generation = 10, Population = 0.
...............
...............
...............
...............
...............
...............
...............
...............
...............
...............
...............
...............
...............
...............
...............
...............
...............

Generation = 15, Population = 0.
...............
...............
...............
...............
...............
...............
...............
...............
...............
...............
...............
...............
...............
...............
...............
...............
...............

Generation = 20, Population = 0.
...............
...............
...............
...............
...............
...............
...............
...............
...............
...............
...............
...............
...............
...............
...............
...............
...............

*** Life<ConwayCell> 7x23 ***

Generation = 0, Population = 34.
.**..............*..*..
...*..*...*..*..*...*..
..*.*....*.*.....*.....
....*..*......**....*.*
............*..........
*...*..*.........***.*.
.*....*....*.......*..*

Generation = 6, Population = 13.
..**...................
..*.*..................
..*.*..............*...
...**...........*......
.................*.*...
..................*....
.......................

Generation = 12, Population = 28.
.**....................
*..*.**................
*.**..**..........*....
.**.*.*..........*.*...
..****..........*...*..
....*............*.*...
..................*....

Generation = 18, Population = 26.
.......................
.......***.......***...
.........*.............
......*.**.....*.....*.
.....**........***.***.
......**........*...*..
.................*.*...

Generation = 24, Population = 31.
..........*............
.....**..*.*...........
....***..***...........
...*..*..***..*.*...*.*
...*.........*..*...*..
...*.....*....*.*...*.*
.........*.............

Generation = 30, Population = 45.
...***....**...........
..*..*...**............
.*....*...**.....*.....
......*....**...******.
*...........***......*.
.*...*.......***.*****.
..***.........****.....

*** Life<ConwayCell> 6x28 ***

Generation = 0, Population = 34.
*......*.........*....*..*..
...*.**......*.....*........
.*.........*...***........*.
........*....***.......*....
.....**......*....*...*..**.
........*.*.*.....*....*.*..

Generation = 7, Population = 24.
..............***...........
.............*...*......***.
.............****......*...*
..............*.......*....*
............*.........*...*.
............*.........***...

Generation = 14, Population = 38.
............*...*.........*.
...........*.....*....**...*
...........*.....**.**.....*
...........*.....*****.***.*
............*...*.*...**.**.
.............***...****.....

Generation = 21, Population = 17.
................**..........
................**......****
......................**.*.*
......................**.*.*
..........................*.
............................

Generation = 28, Population = 12.
................**........*.
................**......*..*
......................*.*.*.
......................**....
............................
............................

Generation = 35, Population = 17.
................**.....***..
................**....*...*.
.....................**.**..
......................*.**..
.......................*....
............................

*** Life<ConwayCell> 19x14 ***

Generation = 0, Population = 71.
*.......*.....
***...******..
.*...**.*...*.
..............
..**....*.....
*....*........
**.....*...*..
*.*..*.**.....
..*...*.*.*...
.*......*.....
..*......*....
.*.*...*...**.
.....*.....**.
***...*.**....
**..**...*....
.**.....***.*.
..*...........
....*..**..*.*
...........**.

Generation = 16, Population = 28.
..............
..............
..............
..*..***......
.***.*........
.***..*.......
..............
..............
...*..........
..*.*.....*...
.*...*...*.*..
.*...*...**...
.*..*.........
..*.*.........
..............
..............
..............
..............
..............

Generation = 32, Population = 21.
..............
...**.........
...**..*......
....**..*.....
.....*.*......
......**......
.....**.......
.....**.......
..............
..........*...
.........*.*..
.........**...
..............
..............
..............
..............
..............
..............
..............

*** Life<ConwayCell> 15x2 ***

Generation = 0, Population = 26.
*.
.*
**
**
**
**
**
**
**
.*
**
**
**
**
.*

Generation = 11, Population = 0.
..
..
..
..
..
..
..
..
..
..
..
..
..
..
..

Generation = 22, Population = 0.
..
..
..
..
..
..
..
..
..
..
..
..
..
..
..

Generation = 33, Population = 0.
..
..
..
..
..
..
..
..
..
..
..
..
..
..
..
