*** Life<Cell> 22x35 ***

Generation = 0, Population = 14.
----------------0------------------
0----------------------------------
---------------------------0-------
-----------------------------------
-----------------------------------
-------0--------------0------------
-----------------------------------
-----------------0------------0----
-----------------------------------
-----------------------------------
--0--------------------------------
-----------------------------------
------------------------0----------
-----------------------------------
---------------------0-------------
-----------------------------------
-----------------------------------
--------------------------------0--
-------------------------0---------
-----------------------------------
-----------------------------------
-------------0--------------0------

Generation = 3, Population = 176.
0-0----------0-----0------0-0------
---0----------0---0------0-0-0-----
--0----0-------0-0----0-0-0-0-0----
-0----0-0-------0----0-0-0-0-0-----
0----0-0-0-------0--0-0-0-0-0-0----
----0-0-0-0-----0-00-0-0-0-0-0-0---
-----0-0-0-----0-0-00-0-0---0-0-0--
--0---0-0-----0-0-0-00-0---0-0-0-0-
-0-0---0-------0-0-0--0-----0-0-0--
0-0-0-----------0-0-----0----0-0---
-0-0-0-----------0-----0-0----0----
0-0-0----------------00-0-0--------
-0-0----------------0110-0-0-------
--0----------------0-0000-0--------
------------------0-0-0110------0--
-------------------0-0-000-----0-0-
--------------------0-0-0-0---0-0-0
---------------------0-0-0-0-0-0-0-
-------------0--------0-0-0---0-0-0
------------0-0--------0-0---0-0-0-
-----------0---0--------0-----0-0--
----------0-----0--------------0---

*** Life<Cell> 2x35 ***

Generation = 0, Population = 32.
0-00000-0-----00---0--0------00--00
--00--0--000--0-0---00--0--00-00-00

Generation = 1, Population = 31.
---1------00-0-1--0----00--0-1--0--
00----10-1-10010-0--11-0-00110-1---

*** Life<Cell> 22x6 ***

Generation = 0, Population = 22.
0----0
0-----
--00--
---0--
---0--
--0---
--0---
-0----
------
------
------
---0--
----0-
---0-0
---0--
--0--0
----0-
------
---0-0
-----0
0-----
------

*** Life<Cell> 9x4 ***

Generation = 0, Population = 19.
00--
-00-
000-
000-
---0
0---
00-0
00-0
--0-

Generation = 1, Population = 14.
1---
01-0
--10
-1--
-0--
1---
1--1
--01
0---

Generation = 2, Population = 23.
*--0
-*01
00*-
0*-0
-10-
*--0
*0-*
-01-
-000

Generation = 3, Population = 18.
.--1
0.1-
--.0
-.--
0-10
*0-1
*-0*
-1-1
0-11

*** Life<Cell> 22x27 ***

Generation = 0, Population = 43.
--------------------------0
-----------0---------------
-0----------------------0--
----------------------0----
-----0-----------0-----0-0-
--------0---------0----0---
------0---0------------0---
------------0--------------
----------0-----0----------
---00-----0----------------
--0---------00-----0-------
---------------------------
----------------0-0--------
0--0-----0-----------------
----0---------------------0
----0-----0---------------0
-----0---------------------
-----00--------------------
-0---------------0---------
---------------------------
---------------------------
----00--------------------0

Generation = 2, Population = 136.
-0-------------------------
---------0---0--------0----
---0-0-----------0----11-1-
--------0--0------0-0--01--
-0-0--10--0----0---0-0--00-
------1---1-0---0---001--1-
----01----0-1---00---0-*---
---00---0-----0---0----1---
--0---0-0-*--00---00---0---
-00--10-0------------------
0---1------1--10-01--0-----
0---0----00----------------
--0-0-------000-0-010-----0
011-00-0--10--------------1
--0--10---------0-0-----0-*
0-01-0--01--0-----------0-*
-0-00--0---------0--------1
---0---10-0---------------0
---0-1---------0---0-------
----0-0-------------------0
-0---------------0---------
--01**10----------------0--

*** Life<Cell> 21x47 ***

Generation = 0, Population = 15.
---------------------0-------------------------
-----------------------------------------------
---------------0-------------------------------
-----------------------------------------------
-----------------------------------------------
-----------------------------------------------
-----------------------------------------------
------------0----------------------------------
------------0----------------------------------
----------0------------------------------------
-----------------------------------------------
-----------------------------------------------
-----------------------------------------------
------------------------------------0------0---
--0-------------------------0--------0---------
--------------------------------0--------------
------0--------------------------------------0-
-----------------------------------------------
-----------------------------------------------
---0---------------------------------------0---
-----------------------------------------------

*** Life<Cell> 47x24 ***

Generation = 0, Population = 2.
------------------------
------------------------
------------------------
------------------------
------------------------
------------------------
------------------------
------------------------
------------------------
------------------------
------------------------
------------------------
------------------------
------------------------
------------------------
------------------------
------------------------
------------------------
------------------------
------------------------
------------------------
------------------------
------------------------
------------------------
---------------0--------
------------------------
------------------------
------------------------
------------------------
------------------------
------------------------
------------------------
-----------------------0
------------------------
------------------------
------------------------
------------------------
------------------------
------------------------
------------------------
------------------------
------------------------
------------------------
------------------------
------------------------
------------------------
------------------------

*** Life<Cell> 16x31 ***

Generation = 0, Population = 27.
--------------------0-----0----
-------------------------------
----------------0--------------
------------0------------------
--0-------0--------------------
----0------------------------0-
----0--------------------------
---------------0---------------
------------00----------0------
---------0----0----------------
------0----0---0----------0----
-------0---0-----0-----------0-
-----------------------------0-
----------0----------0--------0
-------------------------------
-------------------------------

*** Life<Cell> 31x31 ***

Generation = 0, Population = 12.
-------0-----------------------
-------------------------------
-------------------------------
-------------------------------
------0----0-------------------
-------------------------------
-------------------------------
-------------------------------
---------------------0---------
-------------------------------
-------------------------------
-------------------------------
-------------------------------
--------0----------------------
-------------------------------
-----0-------------------------
-----------------0-------------
-------------------------------
---0---------------------------
-------------------------------
-------------------------------
-------------------------------
------------0------------------
-------------------------------
-------------------------------
-------------------------------
-------------------------------
-----------------------------0-
-------0-----------------------
---0---------------------------
-------------------------------

*** Life<Cell> 26x18 ***

Generation = 0, Population = 8.
------------------
------------------
------------------
------------------
--------0---------
------------------
------------------
------------------
----------0-------
------------------
-0----------------
------------------
------------------
------------------
------------------
0-----------------
------------------
------------0-----
------------------
--0---------------
------------------
-----------------0
------------------
----------------0-
------------------
------------------

*** Life<Cell> 23x10 ***

Generation = 0, Population = 42.
-----0----
----00--0-
00-0---0-0
--------0-
----------
----0----0
----0-----
----0----0
--0--0--0-
---0------
0-0-----0-
----------
--0--0---0
-0-----0--
----------
----0----0
--0--0----
-----0----
--0---0---
-0-0--00--
-----0----
----------
--0-0-0---

Generation = 1, Population = 79.
-----10-0-
00--1-0---
11---00---
00-0------
----0---00
---010--0-
---0-0----
--001-----
-0----00--
0-0-00----
-------0-0
0----0--00
---00-000-
0----00-00
-0--0--0-0
--00----0-
-0-0-10--0
----01----
------1---
0-0-0--10-
-0-00--0--
--0-000---
-0-----0--

Generation = 2, Population = 98.
00---*---0
--00---00-
**00-1-0--
-----00-00
00-01--0-1
--0-*-001-
-----10-0-
--11*-00--
--00--110-
-0--11---0
--0-0-0-01
-0-0---0--
--011---10
---001----
---------1
-01--00--0
0-010-10--
-0--1-0--0
0-0-----0-
-0-010--10
---11--1--
-0-0--10--
0---00--0-

*** Life<Cell> 47x41 ***

Generation = 0, Population = 9.
-----------------------------------------
-----------------------------------------
-----------------------------------------
-------------------0---------------------
-----------------------------------------
-----------------------------------------
----------------------0------------------
-----------------------------------------
-----------------------------------------
---------------0------------------------0
-----------------------------------------
------------0----------------------------
-----------------------------------------
-----------------------------------------
-----------------------------------------
-----------------------------------------
-----------------------------------------
-----------------------------------------
-----------------------------------------
-----------------------------------------
-----------------------------------------
-----------------------------------------
-----------------------------------------
------------------------0----------------
-----------------------------------------
-----------------------------------------
-----------------------------------------
----------------------------0------------
-----------------------------------------
-----------------------------------------
-----------------------------------------
------------0----------------------------
-----------------------------------------
-----------------------------------------
-----------------------------------------
-----------------------------------------
----------0------------------------------
-----------------------------------------
-----------------------------------------
-----------------------------------------
-----------------------------------------
-----------------------------------------
-----------------------------------------
-----------------------------------------
-----------------------------------------
-----------------------------------------
-----------------------------------------

Generation = 1, Population = 35.
-----------------------------------------
-----------------------------------------
-------------------0---------------------
------------------0-0--------------------
-------------------0---------------------
----------------------0------------------
---------------------0-0-----------------
----------------------0------------------
---------------0------------------------0
--------------0-0----------------------0-
------------0--0------------------------0
-----------0-0---------------------------
------------0----------------------------
-----------------------------------------
-----------------------------------------
-----------------------------------------
-----------------------------------------
-----------------------------------------
-----------------------------------------
-----------------------------------------
-----------------------------------------
-----------------------------------------
------------------------0----------------
-----------------------0-0---------------
------------------------0----------------
-----------------------------------------
----------------------------0------------
---------------------------0-0-----------
----------------------------0------------
-----------------------------------------
------------0----------------------------
-----------0-0---------------------------
------------0----------------------------
-----------------------------------------
-----------------------------------------
----------0------------------------------
---------0-0-----------------------------
----------0------------------------------
-----------------------------------------
-----------------------------------------
-----------------------------------------
-----------------------------------------
-----------------------------------------
-----------------------------------------
-----------------------------------------
-----------------------------------------
-----------------------------------------

Generation = 2, Population = 36.
-----------------------------------------
-------------------0---------------------
-----------------------------------------
-----------------0---0-------------------
----------------------0------------------
-------------------0---------------------
--------------------0---0----------------
---------------0------------------------0
----------------------0------------------
------------00---0--------------------0-0
-----------------------------------------
----------0---00------------------------0
-----------------------------------------
------------0----------------------------
-----------------------------------------
-----------------------------------------
-----------------------------------------
-----------------------------------------
-----------------------------------------
-----------------------------------------
-----------------------------------------
------------------------0----------------
-----------------------------------------
----------------------0---0--------------
-----------------------------------------
------------------------0---0------------
-----------------------------------------
--------------------------0---0----------
-----------------------------------------
------------0---------------0------------
-----------------------------------------
----------0---0--------------------------
-----------------------------------------
------------0----------------------------
----------0------------------------------
-----------------------------------------
--------0---0----------------------------
-----------------------------------------
----------0------------------------------
-----------------------------------------
-----------------------------------------
-----------------------------------------
-----------------------------------------
-----------------------------------------
-----------------------------------------
-----------------------------------------
-----------------------------------------

Generation = 3, Population = 127.
-------------------0---------------------
------------------0-0--------------------
-----------------0-0-0-------------------
----------------0-0-0--------------------
-----------------0-0---0-----------------
------------------0---0-0----------------
---------------0-----0-0-0--------------0
--------------0-0---0-0-0--------------0-
------------00-0-0---0-0--------------0--
-----------0110-0-0---0--------------0---
----------0-0000-0--------------------0--
---------0-0-0110----------------------0-
----------0-0-00------------------------0
-----------0-0---------------------------
------------0----------------------------
-----------------------------------------
-----------------------------------------
-----------------------------------------
-----------------------------------------
-----------------------------------------
------------------------0----------------
-----------------------0-0---------------
----------------------0-0-0--------------
---------------------0-0-0-0-------------
----------------------0-0-0-0------------
-----------------------0-0-0-0-----------
------------------------0-0-0-0----------
-------------------------0-0-0-0---------
------------0-------------0-0-0----------
-----------0-0-------------0-0-----------
----------0-0-0-------------0------------
---------0-0-0-0-------------------------
----------0-0-0--------------------------
----------00-0---------------------------
---------0-00----------------------------
--------0-0-0----------------------------
-------0-0-0-0---------------------------
--------0-0-0----------------------------
---------0-0-----------------------------
----------0------------------------------
-----------------------------------------
-----------------------------------------
-----------------------------------------
-----------------------------------------
-----------------------------------------
-----------------------------------------
-----------------------------------------

*** Life<Cell> 18x35 ***

Generation = 0, Population = 17.
---0-------------------------------
------------0----------------------
----------0------------------------
-----------------------0-----------
------------------0----------------
--------------------------------0--
----0------------------------------
-------------------0---------------
-----------------------------0-----
------------------------------0----
-----------------------------------
-----------------------------------
-----------------------------------
-----------------0--0--------0-----
-----------------------------------
--------------0--------------------
-----------------------------------
--------------0------0--------0----

Generation = 3, Population = 177.
0-----0--010--0--------0-----------
-0---0--00*000-0--0---0-0----------
--0-0--0-000*00--0-0-0-0-0------0--
---00---0-0010--0-0---0-0-0----0-0-
---0-0---0-00--0-0-----0-0----0-0-0
--0-0-0---0-----0-----0-0------0-0-
-0-0-0-0-------------0-0----0-0-0-0
--0-0-0---------0---0-0----0---0-0-
---0-0-----------0-0-0----0-----0--
----0-------------0-0------------0-
-----------------0-00--------1--0--
----------------0-00-0------0-10---
--------------00-0000-0----0-000---
-------------01100**00-0--0-0-0-0--
------------0--00000000----0-000---
-----------0----1100110-----0110---
--------------0--0-00--0----00--0--
-----------0-0-0-00-----0--0-----0-

*** Life<Cell> 5x37 ***

Generation = 0, Population = 24.
----------0-0----------0-----0----0--
--00-------0---0---0-----00----0-----
-------------0---------------------0-
----0--0---0-0-------0----0-0--------
-------------------------------00----

*** Life<Cell> 24x44 ***

Generation = 0, Population = 17.
---------------0----------------------------
---------------------------------0----------
----0---------------------------------------
-----------------------------------------0--
--------------------------------------------
----------------------------------------0--0
------0---------------------0---------------
--------------------------------------------
--------------------------------------------
---------------------------------0----------
--------------------------------------------
------0-------------------0-----------------
--------------------------------------------
--------------0-----0-----------------------
--------------------------------------------
--------------------------------------------
--------------------------------------------
--------------------------------------------
--------------------------------------------
----------------------------------0---0-----
-----------0--------------------------------
--------------------------------------------
--------------------------------------------
0-------------------------------------------

*** Life<Cell> 29x47 ***

Generation = 0, Population = 30.
-----------------------------------------------
-----------------------------------------------
------0-----0--------------------------0-------
-----------------------------------------------
---------0-------------------------------------
--------------------------------------0--------
----0---------------------------0--------------
--------------------------------------0---0----
------------------------------0----------------
------------------0----------------------------
--0--------------------------------------------
------------------------0----------------------
-----------------------------------------------
--------------------------------------0--------
--------------------0--------------------------
--------------------------0------0-------------
---------------0-------------------0-----------
---0--0-------------------0--------------------
--------0-------------------0------------------
---------------------------0-------------------
-----0-----------------------------------------
-----------------------------------------------
-----------------------------------------------
-----------------------------------------------
-----------------------------------------------
---------------------0-------------------------
-------------0---------------------------------
--------------------0--------------------------
-------0---------------------------------------

Generation = 4, Population = 116.
------0--0--0--------------------------0-------
--------------------------------------0--------
--0-0---*-*-----0---------------0--0-------0---
--------------------------------------0---0----
-----0-------1----------------0----------------
------------------0---------------1-------0----
0-0---0-1---0---------------0-------0--0-------
------------------------0---------1---0---0---0
---------0----------------0-------0------------
--------------0-------0------------------------
0---0-0-------------1-----------0--------------
--------------------1-----0-0----0----0---0----
---------------0--------------0----0-----------
---0--0-----------1-------0-------1-------0----
--0-----0-------1-------0---1------------------
----------------------1-0--0-11----.-0---------
-----1-----0-------1-----------1-.-----0-------
--1-.--1.-1-----------0-------1-------0--------
----0-------0-------0---1-------0--------------
-----------------------0--1----0-0-------------
-0-------1-----0-------------------0-----------
---1--0--------------0----1--------------------
--------0----0--------------0------------------
--------------------1------0-------------------
-----0-0---------------------------------------
-----------------0--.----0---------------------
-------0-0-------0-----------------------------
----------------0---1.--0----------------------
---0-------0-0---------------------------------

*** Life<Cell> 29x16 ***

Generation = 0, Population = 28.
----------------
----------------
---0---------0--
------0---------
----------------
----0---0------0
----------------
----------------
-------0---0----
----------------
-------0--------
----0-0----0----
----0-----------
---------------0
----------------
---0--------0---
----------------
-----0----------
-----0----------
--0-------------
----------------
---0----------00
-----------0----
----------------
-0--------------
----------0-----
----------------
------------0---
-0-0------------

Generation = 2, Population = 86.
---0---------0--
------0---------
-0---0-----0---0
---------------0
---0---------0--
--0---0---0--0-0
-------0---0----
----0---0------0
-----0-0-----0--
----0-0----1----
----10-0-0-1----
--0-*-0-00---0-0
--0---10--------
---01-0----000-0
----0-----------
-0--------0---00
-----1----------
--0----0----0---
---0---0--------
0--101--------00
-----0-----0----
-01--0------01-*
-0-------0---0--
---0------0---00
---0-------0----
--------0-------
---0------------
--------------0-
-----0----------

*** Life<Cell> 21x28 ***

Generation = 0, Population = 44.
-------------------0--------
----------------------0-----
-------------------------0--
--------0---0---------------
----------------------------
----------0-----------0-----
--------00-0------------0---
---------0---------0-------0
--------0-----0----0--------
0--------0--------0---------
--0---0----------0----------
----------------------------
----00--0-------0-----------
-----------------------00---
---0--------------------0---
--------0-------------------
-------0-0----------------0-
---------------0---0--------
0--------------------0------
------0-----------0---------
----0--------0-------0------

Generation = 5, Population = 234.
----------0---0-0-0---0-----
--------0------0-0---0-00---
----0--0--0-----0--1--00-0-1
---0-0-0--0--000-00*00--0-0*
0---0-0-*---00*00--0--0---00
-00-0-*0010-0-*--0--10-0.--0
00--1**.*-.--.1*--0.-0.-01--
--0------.*.-----1.-0--0010-
------00**.0.0--*--1--0*-0--
1-.-*----1----*-0-0--00-*0--
--**-*---*1*-*-----00-000--0
-0000-00---0-00---1*-0------
-100-1..0----0---.---0--.0-0
--0-0-00.-0-----0--0-----.--
*--010-*.1--0--00-00-11----0
0-0---1-0----0--0--00-0-.-0-
--0---00-001-----0000.*000-0
--0-----0-0*010--01-0-001-0-
-0-11-0-0-000.-00--.0.-0-*0-
-01--0-01--0---0---.-0-00-0-
--0----*-00---0---0-0---0110

*** Life<Cell> 40x12 ***

Generation = 0, Population = 17.
------------
------------
------------
------------
------------
------------
------------
------------
------------
------------
------------
----------0-
------0-----
------------
--------0---
-----------0
------------
-----0------
------------
----------0-
------------
-------0----
-------0----
-0---------0
------0-----
------------
------------
------------
--------0---
-------0----
-----------0
------------
------0-----
------------
------------
------------
------------
-0----------
------------
-------0----

*** Life<Cell> 41x49 ***

Generation = 0, Population = 14.
-------------------------------------------------
-------------------------------------------------
-------------------------------------------------
-------------------------------------------------
-----------------0-------------------------------
-------------------------------------------------
-------------------------------------------------
---------------------------------------0---------
---0---------------------------------------------
-------------------------------------------------
-------------------------------------------------
--------0----------------------------------------
------0------------------------------------------
------------------------------------0------------
-------------------------------------------------
-------------------------------------------------
---------------------------------------------0---
-------------------------------------------------
-------------------------------------------------
-------------------------------------------------
-------------------------------------------------
-------------------------------------------------
-------------------------------------------------
------------------0------------------------------
-------------------------------------------------
-------------------------------------------------
-------------------------------------------------
---------------------------------------0---0-----
----------------------------------------0--------
--------0----------------------------------------
-------------------------------------------------
-------------------------------------------------
----------------------0--------------------------
--------------0----------------------------------
-------------------------------------------------
-------------------------------------------------
-------------------------------------------------
-------------------------------------------------
-------------------------------------------------
-------------------------------------------------
-------------------------------------------------

Generation = 1, Population = 52.
-------------------------------------------------
-------------------------------------------------
-------------------------------------------------
-----------------0-------------------------------
----------------0-0------------------------------
-----------------0-------------------------------
---------------------------------------0---------
---0----------------------------------0-0--------
--0-0----------------------------------0---------
---0---------------------------------------------
--------0----------------------------------------
------00-0---------------------------------------
-----0-00---------------------------0------------
------0----------------------------0-0-----------
------------------------------------0------------
---------------------------------------------0---
--------------------------------------------0-0--
---------------------------------------------0---
-------------------------------------------------
-------------------------------------------------
-------------------------------------------------
-------------------------------------------------
------------------0------------------------------
-----------------0-0-----------------------------
------------------0------------------------------
-------------------------------------------------
---------------------------------------0---0-----
--------------------------------------0---0-0----
--------0--------------------------------0-0-----
-------0-0------------------------------0--------
--------0----------------------------------------
----------------------0--------------------------
--------------0------0-0-------------------------
-------------0-0------0--------------------------
--------------0----------------------------------
-------------------------------------------------
-------------------------------------------------
-------------------------------------------------
-------------------------------------------------
-------------------------------------------------
-------------------------------------------------

*** Life<Cell> 12x41 ***

Generation = 0, Population = 3.
----------------------------------------0
-----------------------------------------
----------------------0------------------
----------0------------------------------
-----------------------------------------
-----------------------------------------
-----------------------------------------
-----------------------------------------
-----------------------------------------
-----------------------------------------
-----------------------------------------
-----------------------------------------

*** Life<Cell> 25x4 ***

Generation = 0, Population = 11.
0-0-
----
----
----
----
--0-
----
---0
----
----
--0-
-0--
----
----
----
----
----
---0
---0
----
--0-
----
----
0--0
----

Generation = 2, Population = 33.
0---
----
0-0-
--0-
----
0--1
----
-010
--0-
-0-0
0---
---0
--0-
-0--
----
---0
---1
-0-*
-01*
---1
0--1
0--0
--0-
0110
----

Generation = 4, Population = 35.
0---
--1-
0-*-
---1
1-1-
0-1-
--1-
--.-
----
--1-
0-0-
-0--
----
---0
--01
-0--
--11
-*1*
-0-*
1--1
*-1-
---*
---1
*1.*
--1-

*** Life<Cell> 12x24 ***

Generation = 0, Population = 26.
0---------0----0--------
-------------0----------
---0-----0--------------
---------0-0---------0--
---------------------0--
---------0-------000-0--
-------0----------------
------------------------
---0-----0------00-----0
-------0---0------------
----------------------0-
---------0----0---------

Generation = 3, Population = 148.
-0110--01*1-1*-1--0--0--
0000-0-0-*00000-00--010-
110-0--10-*-0-01000-0-00
00-0-00-01-10--0011-0.-1
--0-0-0--100---00----00-
-----00*-10---01**0---0-
--0---0----0-----*-0-*-1
-0-0--0----10-00--1-----
0-0-0100--0*0--*1------1
-0-0010-0*0001--0000000-
--0-00--0-0-00-0-100-00-
---0----0100----1---0--0

*** Life<Cell> 8x46 ***

Generation = 0, Population = 41.
-0----------0-------0---------0--0------------
0--0----0--00---------------------------------
-------------------------0------------0-------
-----0----------------0---------0--000-00-----
---0---0-----------0------0------0--------00-0
---0-------------0----------------0------0----
-----------------------0-------00----0--------
-----------0------0----------0----0-------0---

Generation = 3, Population = 197.
-10-0-0-----.010-0----100-00--1-*1-1----0-----
1-*0-0--0---0*-0--00-01--0000---1-0-1101-000-0
010*0--1-0--*-0--001-0---0*100100000*--0*--1--
-00*0-0-1-01-0--010-1--01-000010-1-*-1-*1-*000
-101---0--0-0--00*-0--011*00--00--0---10-1-.10
0101---0-00-0-0-0-*-00--0-0--1--00-*-*--*0-*-0
-00*0-0-00---0-000010---011-0**-10---00-0-*-0-
--010--00-----001-10-----0---10**00--0--1--0--

*** Life<Cell> 25x13 ***

Generation = 0, Population = 21.
-0-------0-0-
--------0----
---------0---
-------------
-------------
-------------
-------------
----------0--
-------------
--------0----
-------------
----0----0---
--------0----
------0------
----00-------
--------0----
-------------
-----------0-
-------------
-------------
--------0-0--
-----0--0----
-------0-----
-------------
-----0-------
