*** Life<Cell> 14x7 ***

Generation = 0, Population = 13.
-------
--0-0--
-0-----
-0-----
-------
-------
-------
-------
---0--0
00-----
0-00---
----0--
-------
---0---

Generation = 11, Population = 41.
-..-1*-
**.----
-*-10..
****..*
-*-..1.
*.*---*
*-...0*
**-**.-
*....*.
*****.1
*......
*.*.-1.
.*..-*.
..--1*0

*** Life<Cell> 14x7 ***

Generation = 0, Population = 14.
-------
-------
0---00-
-------
0-0--0-
---0---
-0-----
-------
0-0----
-------
-------
-0---0-
-----0-
----0--

Generation = 11, Population = 31.
-**.**-
*..*.0-
*-.....
--*--.-
..-**.*
..0*-.0
..-..-*
.*0.*-1
--..*.0
---.--.
-..-1**
*0-.1..
*.....1
-..-*..

*** Life<Cell> 14x7 ***

Generation = 0, Population = 14.
-------
0---0--
-------
---0-0-
------0
----0--
-----0-
-------
-------
0------
-0000--
---0--0
-------
-------

Generation = 11, Population = 47.
*00-.1.
*1-.**.
-...**.
**-*-*-
-*.*.1.
*-*1.-.
*....1.
*01..-.
0-.*-.-
*...***
*.....*
*.*.*.*
*1*.-*0
*--**10

*** Life<Cell> 14x7 ***

Generation = 0, Population = 14.
--0-0--
---0--0
-------
-------
---0---
--0----
--0--00
-------
--0----
--0----
---0---
0---0--
-------
-------

Generation = 11, Population = 46.
-**.1-.
1-11*..
*00*-0-
*-*.0-.
*.-.*-.
*.*.*01
.**....
0*....1
.-.....
*11-1.*
1**1--.
0..0-1*
----*-*
-1-.100

*** Life<Cell> 14x7 ***

Generation = 0, Population = 14.
-------
------0
---0---
--0---0
0----0-
-0-----
---0--0
--0----
-------
-------
--0----
------0
-0-0---
-------

Generation = 11, Population = 46.
0-*.00*
1..0-..
**11..-
.11-1*.
*..0**-
..*.-*.
..--.11
*---.0-
.1**-*-
..*-01-
..0.--1
01*0.1-
1-1..-*
*.10*.-

*** Life<Cell> 14x7 ***

Generation = 0, Population = 13.
-00----
-----0-
-------
-------
-------
---0---
-0-----
-------
-0--0--
-0--0-0
-----0-
-0-----
-------
---0---

Generation = 11, Population = 46.
.*.*..-
---**.0
-..---*
1-*1...
.-10.0-
*.1*-1.
0*1-1*.
-*0**--
-...*.1
-.*****
**--..0
1**-..-
..**-*.
0.****-

*** Life<Cell> 14x7 ***

Generation = 0, Population = 12.
--0----
---0-0-
-------
0------
-------
-------
-00----
------0
-------
-------
-00----
-------
0---0--
----0--

Generation = 11, Population = 47.
.**0-0-
-.-*.--
.*1-*-.
*-**1.-
1..**.1
.1**0..
.-...**
.01-.*.
*001.0-
--*1**-
1.....*
*1.-.-*
*-.-.**
*****..

*** Life<Cell> 14x7 ***

Generation = 0, Population = 13.
--0----
-----0-
-------
-------
-------
-------
-------
------0
----00-
-0--0-0
0-0-000
-------
-------
-------

Generation = 11, Population = 46.
-0-*-*0
001*-1*
-00--.1
-10-0.-
--..-.1
---..-1
1-.-...
-*.*1.*
*-....-
*1***-.
0*0*1.*
-0-**-*
-111-.*
--.*.01

*** Life<Cell> 14x7 ***

Generation = 0, Population = 15.
00-----
--0-0--
-------
-0-0---
--00---
-------
0-0----
----00-
---0---
-------
------0
-------
------0
-------

Generation = 11, Population = 39.
1****-.
*---.*1
..*.*-1
-.*...*
.******
0***0--
--.0*.-
*.*.-.*
...1..-
----.**
*-...-.
-...1..
-...0.-
1*--.*0

*** Life<Cell> 14x7 ***

Generation = 0, Population = 13.
-------
-----0-
-------
-------
-------
00-----
-0---0-
--0----
----0--
---0---
-0-----
-----0-
---0---
---0-0-

Generation = 11, Population = 47.
1-*0***
11--0-0
1*0-**0
*-*.*.0
-.1-**-
**1-.10
*.0*...
.-1*.-.
01.--..
.*..-.-
*.---.*
*.*.-1-
..0..**
--**-*-

*** Life<Cell> 14x7 ***

Generation = 0, Population = 14.
-----0-
----0--
-------
--00---
----0--
--0----
-----0-
----0--
----00-
----0--
-----0-
-------
0------
--0----

Generation = 11, Population = 38.
--.1*.-
-..*11-
*-.-.00
.****0.
0.***-.
.-*--..
*-1*...
00-0...
-.-....
--.-.-.
*1--.-*
--*1*--
.1**0.*
.-.-*01

*** Life<Cell> 14x7 ***

Generation = 0, Population = 13.
-------
-------
---0---
------0
---0---
--0----
-0---0-
---0---
-------
---0---
-------
---0--0
0--00--
-------

Generation = 11, Population = 51.
------0
1-..-*-
1-1**-1
011-.*-
-*0--10
11*.*1.
*.01.-1
**..0*1
.-0***-
**-*--.
*.1.*..
-*..-*-
**.--1*
0*0**..

*** Life<Cell> 14x7 ***

Generation = 0, Population = 13.
00-----
-------
-------
-0-0---
0---0-0
-------
-------
-0-----
-------
-----0-
0------
-------
-----0-
0-0----

Generation = 11, Population = 36.
-..-..-
-.-.-*0
...11*1
-*--010
0----1-
-1*---0
1.1--1-
--.--.1
-*1-1.1
*-.-.*.
*.*-*.0
...--*1
..--*--
**--*1.

*** Life<Cell> 14x7 ***

Generation = 0, Population = 15.
-------
-------
0------
----00-
0---0--
----0--
0-----0
----0--
---0---
---0-0-
------0
-----0-
-------
-----0-

Generation = 11, Population = 40.
.1*0*-0
.-.-.*0
*-..--.
**-*.*.
-...-1-
**..-.*
..-1..1
*..*0.-
*-1..**
....--*
.0*.001
-.-*..*
.-**1.1
-1.*-*-

*** Life<Cell> 14x7 ***

Generation = 0, Population = 14.
-0-----
-------
--0-00-
-------
-------
--0--00
----0--
-------
----0-0
-------
-0---0-
-0-----
----0--
-------

Generation = 11, Population = 50.
1.1--.1
*--10*.
**.....
*1*-11-
***-..*
*1.-***
-..*1.*
*.--.0*
.*.*--1
-*-1*.*
*1001.*
-*---**
--.--..
-*.10**

*** Life<Cell> 14x7 ***

Generation = 0, Population = 14.
0------
----0--
-------
0------
---0---
--0-0--
-------
--0----
-------
-00----
------0
---0---
----0--
---0--0

Generation = 11, Population = 48.
--.1...
.0*0*01
.*-*.*1
*--.11-
0---*01
1..-0--
.-.*-**
..*..1*
**-**.-
*...**-
**.-*-1
-1**-**
1**.*1.
0--...-

*** Life<Cell> 14x7 ***

Generation = 0, Population = 14.
-----0-
-0---0-
--0----
0-----0
---0---
0------
---0--0
----0--
-0-----
---0-0-
-------
-------
-------
-------

Generation = 11, Population = 39.
-*.***-
*..-1.*
.-*.-*.
1.*-*.-
.-..--.
**.*..1
.--0**.
...*-1*
1.0*..*
*.---*0
-.--0-1
00*.-**
-.1.-1-
*------

*** Life<Cell> 14x7 ***

Generation = 0, Population = 14.
--0----
-0-0---
-----00
--0----
-------
-0-----
-------
0------
-------
0----0-
--0-0--
-------
-0-----
---0---

Generation = 11, Population = 41.
*--*...
-.-.*.-
.-****.
.*01..*
..-.0*1
*-..*..
*..-*1-
*.1..11
--1**.*
-.....*
*.0*-**
..***.-
--.*..-
**1.-.0

*** Life<Cell> 14x7 ***

Generation = 0, Population = 14.
-------
-0-----
--0----
---0-0-
-------
0------
-----0-
------0
0----0-
----0--
---0---
---0---
-------
-0----0

Generation = 11, Population = 47.
0--1-*-
...-0**
.01-*..
**.*-..
0.-1*.-
*..***.
*.0.*.-
*1.0-*.
.0*.*-*
0*-11*-
**1**.*
0-*..-.
.0....-
-..*1*-

*** Life<Cell> 14x7 ***

Generation = 0, Population = 15.
-------
-------
-0----0
-------
---0-00
--0--0-
-0-----
0------
--00---
-----0-
-------
-------
-------
---0-00

Generation = 11, Population = 38.
0.**-.-
*1..0.*
1-...*.
-**0..0
1*1*..*
-*1....
*.1--*.
-**1.--
1-....-
-1..-*-
.*..--1
-0-.1.*
.1....-
-*.--*1

*** Life<Cell> 14x7 ***

Generation = 0, Population = 14.
---0-0-
0----0-
-------
--00---
0-0----
-----0-
-------
---000-
--0----
------0
-------
-------
-------
-------

Generation = 11, Population = 39.
-..-..-
*.-....
.-..-.-
*.--*..
**..*.-
*.-.*1.
.**1**0
...*0*.
-.*010*
-.-0-.*
1--*0*-
-00*-.-
1-00..-
-1-***-

*** Life<Cell> 14x7 ***

Generation = 0, Population = 14.
-0-0---
-------
-----0-
-----00
-------
-------
-------
---0---
--0----
-----0-
0------
--0----
---0-0-
0-----0

Generation = 11, Population = 45.
-100.*1
-*.*-.-
-.-.**1
.1*...*
0--.1..
**--*..
0.-11.1
..--1.-
11-.*.*
.*--1-0
0.--**.
*1...1.
*.**..*
10**.1-

*** Life<Cell> 14x7 ***

Generation = 0, Population = 14.
-------
0-0---0
-00---0
-0-----
--0--0-
-------
-0-----
-------
-----0-
-----0-
-------
---0--0
-------
-------

Generation = 11, Population = 47.
.-.-.1.
-.****.
.****.*
*.*1.-*
*-*....
..*-.1-
1.*.-..
1.**...
*.*.1.*
***--1*
1*-1-*0
1**-.0-
0*-.0--
0-.-11-

*** Life<Cell> 14x7 ***

Generation = 0, Population = 15.
-------
-----00
----00-
0------
-------
-0-----
-0-0---
-------
----0--
----0--
-----0-
-0-----
0--0---
-0-----

Generation = 11, Population = 46.
*110-.-
*-1**-*
.-**.11
-.*0***
-.-*0..
-.1.*..
-*.-*.-
.**..-1
-......
0**.*-.
1.*1**0
**-..*-
*..*-*-
1.-*.*-

*** Life<Cell> 14x7 ***

Generation = 0, Population = 14.
-------
-------
00-----
-0-----
0-----0
-------
---0---
-------
-------
----0--
00-----
0-0----
---00--
0------

Generation = 11, Population = 39.
1..-*.-
-*..0*-
--.*..-
-***---
011..1-
*---**-
.-*-*1.
0..-00.
..*.1-.
----*--
*..*.**
*--.*-*
*....*.
**10-0-

*** Life<Cell> 14x7 ***

Generation = 0, Population = 15.
--00-0-
-------
-------
-----0-
-------
--0----
---00-0
-------
-------
-00-0--
-----0-
-------
-0-----
-00----

Generation = 11, Population = 48.
***1--.
-.****.
1011*.-
..*1.*.
1*0.*.1
-1*0.-.
.*.**0*
**--..*
--.1*0-
.*.*-.*
*.**.-.
1-.---*
1.-...*
*...**.

*** Life<Cell> 14x7 ***

Generation = 0, Population = 14.
---0---
-0---0-
--0--0-
--0---0
--0----
-------
-------
----0--
-0-----
-------
0------
----0--
-----0-
--0----

Generation = 11, Population = 39.
.......
----*.*
.***-.*
**.-11*
**.*.-*
*-.1..-
...*..*
.0*0..-
-.*-*.*
-1*0-.-
*1..*1*
*1.-.-.
---.-**
.-.-.00

*** Life<Cell> 14x7 ***

Generation = 0, Population = 15.
00-----
0-----0
-----0-
0------
-----00
-------
--0----
--00---
-------
-------
00-----
-------
-------
-----00

Generation = 11, Population = 40.
-...*-*
.....*.
.*1.-.*
.1..-..
.-..*..
*0..1*-
*1.--*.
**.*.1-
01---*-
--.**..
......1
10****.
**-*-*.
.*****.

*** Life<Cell> 14x7 ***

Generation = 0, Population = 15.
-------
-------
0--0---
-------
----0--
-------
---0--0
-0-0---
-0-----
-0-000-
-----0-
-------
-------
00-----

Generation = 11, Population = 42.
0*-*..-
-*.*---
-..**-*
-.*.101
1*-1*-*
-*-****
.-**1*1
-.1**.-
..**.*-
-......
..**-..
0--*-..
-11.0.*
.....*-

*** Life<Cell> 14x7 ***

Generation = 0, Population = 13.
-------
---0---
--00---
-------
-0--0--
-------
-------
-------
-------
--0-00-
-0---0-
-------
0--00--
-------

Generation = 11, Population = 45.
-...1-0
.10*1-*
0*-*1..
01-1-*-
1.-*-..
*--*-.0
*.-...-
*-.000-
*0-1.*-
*.*1*.*
..-1*1*
--....*
1*-.*.0
-0-*-..

*** Life<Cell> 14x7 ***

Generation = 0, Population = 15.
---00-0
------0
---00-0
-------
-------
0------
---0---
-------
-0--0--
-------
-0-0---
-------
---0---
------0

Generation = 11, Population = 45.
..*.**.
*-*..-.
*.*.***
-01.*.-
10-.*-*
-1*10-*
**0....
1-.11-0
-...-*-
.*..-..
*..*..0
*1*1---
-*..*-1
00--1-0

*** Life<Cell> 14x7 ***

Generation = 0, Population = 13.
-------
--00---
0--0---
-00-0--
-------
--0----
-0-----
-------
-------
-------
-0--0--
0-----0
-------
-------

Generation = 11, Population = 45.
.-..**0
....*-.
*-.111.
*.*.1--
*.*.-*-
**.***0
*-0-.*1
-..1.-0
*1**.-*
-...*-.
*-.*..*
-**0...
*----1.
*-100-0

*** Life<Cell> 14x7 ***

Generation = 0, Population = 15.
--0-0--
-0-----
--00-0-
---0---
----0--
-------
0------
-------
--0----
-------
----0-0
---0---
-0--0--
-------

Generation = 11, Population = 40.
-.****.
10*0--0
...--..
1-.1.*-
11.1-*.
-.-.*-1
--1.-.*
0..-0*-
*-1*1.-
*---0-0
*...1..
0**-1-0
--..*-.
-1-.-1-

*** Life<Cell> 14x7 ***

Generation = 0, Population = 14.
-------
-------
------0
-------
----0-0
---0---
-0-00--
----0--
------0
-0-----
----0--
-------
00-----
-0-----

Generation = 11, Population = 43.
-*-*--0
0-0..*0
*.**0-1
*.*-***
..-*.**
.*1*10.
*.....0
...*1-.
.*...*.
-10...*
...-..1
..--10.
...**.*
...1*.1

*** Life<Cell> 14x7 ***

Generation = 0, Population = 14.
--0----
----00-
-----0-
0------
-0--0--
-------
------0
--0----
-------
0------
----0--
-0-----
----00-
-------

Generation = 11, Population = 39.
.***..-
*..**-1
0*.*-..
*-1--.-
1...-**
.*...1-
-0*-*.-
-*11..-
*--0-1-
*.*1-.-
0-.-...
.1*1-.-
-.***--
1---10-

*** Life<Cell> 14x7 ***

Generation = 0, Population = 15.
-------
-------
--0-00-
-----0-
-------
-0---0-
--00---
0-----0
-------
--0----
-----0-
-------
-------
0-0-0--

Generation = 11, Population = 43.
-.01.--
.*.1*.-
*.**.*1
**--**0
-.--.*0
*.-.**.
**..-*.
--*-0**
..**-**
--.-..*
.1.--.-
--.-**1
-0.1---
1.00-*1

*** Life<Cell> 14x7 ***

Generation = 0, Population = 14.
-------
--0---0
0-00-0-
0------
-0-----
-------
-------
--0-0--
----0--
-------
-------
-------
--00---
-----0-

Generation = 11, Population = 36.
-...*-1
...-**1
....-..
..-.01*
--.-.**
**.--.-
*11..1*
0.**...
*....1*
*0*..*.
*--*--0
*1*-...
......-
-1-1-.0

*** Life<Cell> 14x7 ***

Generation = 0, Population = 14.
-------
-------
-----0-
---000-
00-----
-------
-------
-------
-------
-0-----
0-0----
0-0----
-----0-
-00----

Generation = 11, Population = 48.
****1.*
.*.0-**
*.--.*0
-1*.0-.
**..*1*
-..1--*
*-..-.0
...-1*.
**-..-*
*1.1*.*
.0**-.*
*....1.
*1*-.-0
-*1*-..

*** Life<Cell> 14x7 ***

Generation = 0, Population = 14.
-0-----
-------
-------
-----0-
------0
-0-----
---0---
-------
-0-----
---00--
-------
00---0-
---0-0-
-0-----

Generation = 11, Population = 47.
1-*-.**
0*0.*-*
1.0*---
*..*0*-
*..1.-*
.-*.1.1
-101*0.
***.-0*
0.--*.*
*-*..-*
....*.*
......*
-*--**0
..1.*.-

*** Life<Cell> 14x7 ***

Generation = 0, Population = 14.
---0---
0------
--0-0--
-------
---0--0
--0---0
----00-
-------
----0--
----0--
-------
------0
------0
-------

Generation = 11, Population = 47.
-**-...
*-..1--
*.*..*-
*-.110.
-*1*.-.
...01*.
..**.11
.-*-**.
*.-1.10
.**1.*-
110*...
-*10--.
-1.**.*
--****.

*** Life<Cell> 14x7 ***

Generation = 0, Population = 12.
-------
-0-0---
-------
0-0----
-------
-------
-0-----
-0----0
-------
-------
-------
-00----
0-----0
-----0-

Generation = 11, Population = 43.
00--0-0
*1-*-.-
0.-.--0
*....1.
-*-*-**
-*.-1*0
.*-.--*
.**1.-*
.-.0.--
*0-.*-*
*-01-1*
-*.**11
*.*----
.....1-

*** Life<Cell> 14x7 ***

Generation = 0, Population = 13.
-------
-----0-
-------
-0-----
-------
------0
-0---0-
-------
-------
0--00--
---0--0
----0--
-------
--0-0--

Generation = 11, Population = 52.
0.0*-*1
1*-.1.*
0**1-*-
-...**.
*.0-*.0
-.*..-1
11-.-.*
0.-..-*
*.1.*-*
**.1*.*
0..****
0-*-**.
-.-.***
-**..**

*** Life<Cell> 14x7 ***

Generation = 0, Population = 15.
------0
-------
0------
--0----
0-0----
----0-0
-------
-----0-
0---0--
----0--
-0----0
0-----0
-------
-------

Generation = 11, Population = 35.
*-0-*.*
***-1..
.1.1.**
*..-1..
1..*...
..*--**
.*--.1.
-.*--..
1*0.*..
1-*..-.
-..--*.
*--00..
*.*--..
.--*...

*** Life<Cell> 14x7 ***

Generation = 0, Population = 13.
-----0-
-------
-------
-0-----
-0---0-
-------
-0---0-
0--0---
--0----
-------
-0----0
-0-----
-------
------0

Generation = 11, Population = 42.
-00-*.-
1-0-0*0
1.1--.1
.**--.-
-**..**
.*.1-.-
-..*.1.
.1--*1-
.**1**.
-*-.11.
.1*-.0.
..-*-*.
0.*0-..
-**-.-.

*** Life<Cell> 14x7 ***

Generation = 0, Population = 14.
--0----
-----0-
-----0-
-0-0---
-00-0--
-------
-------
-----0-
------0
---0---
--0----
--0----
-------
---0---

Generation = 11, Population = 39.
.**....
*.*.0.0
-.-*.*.
-**-1.1
.-.....
-*....1
*-..-1-
-*-**--
...0-**
1.**--1
*-.-.**
*-*--.*
*1*1--*
-*..0-.

*** Life<Cell> 14x7 ***

Generation = 0, Population = 15.
0-----0
---0---
-------
-00----
---0---
------0
---0---
---0---
----0--
-------
0-00---
---0---
--0----
-------

Generation = 11, Population = 39.
-*1.-.-
-..-..*
*0*-1-*
..1..*.
...*.-.
0.011-0
-...*-0
0.-.-1*
0-1..1.
.-.-.*.
*..1*.*
-*0.*.-
10..*-*
-.-.1**

*** Life<Cell> 14x7 ***

Generation = 0, Population = 14.
----0--
---0---
-0-----
--00---
-----0-
----0--
---0---
-------
-----0-
----0--
-00----
-------
-----0-
--0----

Generation = 11, Population = 28.
.1-*0.-
.*..-.-
-0..-*-
.1-*.*-
-..-.**
..--11*
.-...-1
-0..*.-
..-1-0.
.-..-*-
....-.*
0-..*.-
.*..-.-
10.-01-

*** Life<Cell> 14x7 ***

Generation = 0, Population = 13.
-------
-------
---0-00
00---0-
0------
--0--0-
-------
----0--
-------
---0---
-------
-0-----
--0----
-------

Generation = 11, Population = 44.
-00-*-.
0-**0**
..*1*1.
.1.*..1
*-.0.*.
*.-.-.*
0...*-*
****1**
--*-01.
.*.-..-
10--1--
---1*..
.---.1*
---1*--

*** Life<Cell> 14x7 ***

Generation = 0, Population = 15.
-0-----
----0--
-------
-0-----
---0--0
--0----
----0--
-------
-----0-
---0---
-0---0-
-------
-----00
00-----

Generation = 11, Population = 41.
.*-.-1*
.*..*..
-*--.1-
1.**.-0
.*.1..*
*.---0*
*--.0*-
-*1*.01
-.1..--
1.*-*.*
-.-.-.*
..-***.
*.-11*.
.***.-.

*** Life<Cell> 14x7 ***

Generation = 0, Population = 11.
-------
0-0--0-
-----0-
-------
--0----
-------
------0
-------
-0--00-
-----0-
-------
-------
-------
----0--

Generation = 11, Population = 46.
*.--0.1
*.-**.-
...0-*.
*.*0-*0
*.1.*.*
*1.*-**
...**..
-1*1...
----.-0
1*-1*..
0***-.-
0..1.10
***-..-
00----1

*** Life<Cell> 14x7 ***

Generation = 0, Population = 14.
-------
----00-
0---00-
-0-0---
-------
-----0-
------0
-----0-
-----0-
-0-----
-------
0------
----0--
-------

Generation = 11, Population = 43.
.*.1.*0
.*...-*
.11--..
1.1**.-
*.--1*.
.-.**00
1*--1**
.--****
-***...
*.**1.1
*.--...
1-*....
.-1*.*.
-.--.*-

*** Life<Cell> 14x7 ***

Generation = 0, Population = 15.
-0--0--
-----0-
000---0
-------
-------
----0--
-----0-
-------
-------
-----0-
-0-----
--0----
---0-0-
------0

Generation = 11, Population = 40.
--*-.*-
-.*.*-*
*...*--
**.1--*
*1-00-*
.0.-...
--..-..
11.0-*-
-.-*0.-
*..1.-1
*.-00.-
-.*-**-
00110.-
0--.*.*

*** Life<Cell> 14x7 ***

Generation = 0, Population = 13.
--0----
----0--
--0----
-------
----000
0-0-0-0
-------
-------
-------
-------
-------
--0----
-----0-
--0----

Generation = 11, Population = 49.
*1.0.*-
*-...0-
*-*-*.*
*-.1*.*
*.*...*
11-0***
***-.-*
----*0.
-0*0.-.
1--**0.
-0.-*-*
10-1101
-----00
---0*-.

*** Life<Cell> 14x7 ***

Generation = 0, Population = 14.
-------
-0-----
-------
------0
-------
---0---
-0-----
-0---00
--00---
------0
-----0-
0------
-------
-00----

Generation = 11, Population = 44.
011-0--
.**-111
-.**-*-
.*-..-*
1*..-*0
**..1.-
1.--0-1
.-.*...
....*-.
..**111
--0--*.
.*1--*1
-.**-1-
***1--.

*** Life<Cell> 14x7 ***

Generation = 0, Population = 12.
---0-0-
0------
---00-0
-------
---0---
-------
---0-0-
-00----
-------
-------
--0----
-------
-------
-------

Generation = 11, Population = 43.
.1-..-.
--.-.-1
*.*-**-
*.1-1--
..--*-.
*.1011.
1.**.*-
..-*..1
*..-110
..-1*.-
1**11..
-1.--1-
1-0.0*1
-.1*-*0

*** Life<Cell> 14x7 ***

Generation = 0, Population = 12.
-------
-------
---0---
-------
-------
-00-0-0
-------
-0---0-
-0---0-
-----0-
-------
-------
-------
-00----

Generation = 11, Population = 33.
-*.--*-
*...-1*
..---.-
-.*1-.-
-...-.-
.**-...
*-.*1.-
......*
-***-*-
0*-0-.-
00--1.0
-***1..
-*.-.*0
..*.--0

*** Life<Cell> 14x7 ***

Generation = 0, Population = 13.
--0-00-
0------
-------
0-0----
---0---
0------
----000
--0----
----0--
-------
-------
-------
-------
-------

Generation = 11, Population = 48.
**...*.
0-....-
*..-*1.
.-*1-*.
11.-.*-
.-*..-*
0*.1.**
-1.-*--
*1**0**
.1-1-0*
.0.-*..
11-0*01
0-*-*.0
-0.0--1

*** Life<Cell> 14x7 ***

Generation = 0, Population = 14.
-0-----
-------
0------
------0
-----0-
-------
-----0-
---00--
----0--
--0----
------0
--00---
-------
---00--

Generation = 11, Population = 47.
.***-*-
*110*10
....**.
*-.*1-1
*--.*1-
1-1*.0.
0.*.-*.
.***.*1
*..-**-
*.*--..
-.0.1.-
*.*....
--*..*-
.*.1**.

*** Life<Cell> 14x7 ***

Generation = 0, Population = 15.
-------
-------
-0--0--
0---0-0
-0---00
-------
0------
------0
-------
0-00---
0------
-----0-
-------
-------

Generation = 11, Population = 40.
1*1-.*.
0-*..*-
-.*...*
.1-..11
1**-..*
...*..1
.-..1..
..-....
-*-0-0.
*....-*
***-*.*
-1.-*.*
*-1-*1*
**-*--.

*** Life<Cell> 14x7 ***

Generation = 0, Population = 14.
------0
-------
-0----0
-------
-----0-
------0
-------
0----0-
0------
---00--
-------
----00-
-------
--0--0-

Generation = 11, Population = 39.
.*.----
-*.-.1-
*1..1*-
*-----.
--1-0-*
--.*..1
*.1--.*
.-.1..*
**.-..-
.1-..**
1.1**-*
.**.***
.1*1..-
--**.-0

*** Life<Cell> 14x7 ***

Generation = 0, Population = 13.
---0---
-------
0-----0
-----0-
--0-0--
---0---
-----0-
-------
---00-0
------0
-------
-------
-------
--0----

Generation = 11, Population = 38.
.-..-**
--*----
....*.*
0--*-.*
..--.**
0*.0--*
1**-...
0-0.-..
1*....*
0--..-*
--1-*.*
0--0-.*
1**.*-*
-1-1--*

*** Life<Cell> 14x7 ***

Generation = 0, Population = 14.
-------
-0----0
---0---
----0--
-------
---0---
----0--
----0--
-00--0-
-------
---00--
----0--
-------
------0

Generation = 11, Population = 52.
-***1.*
*--..-.
**.--.-
.110..0
.*.*..*
-*1-1.*
*.--*.*
**.*.-*
**.**-*
-*.11.*
11-.*1*
**-.*--
*...***
-1.*100

*** Life<Cell> 14x7 ***

Generation = 0, Population = 13.
0------
-----0-
-------
-------
---0---
-------
--0-0--
----00-
0----0-
-------
-----00
-----0-
---0---
-------

Generation = 11, Population = 45.
...**.-
0--*-.-
0-*.*.0
--**..-
-1.*1.0
-.-*..*
-***.*.
**..*..
**.-*.*
--11..-
**.0*.*
*..****
.**.-*-
*0-.*..

*** Life<Cell> 14x7 ***

Generation = 0, Population = 14.
--0---0
0------
---0---
00-----
-------
--0-0--
-0-0---
----0--
-------
-----0-
-----0-
----0--
-------
-------

Generation = 11, Population = 50.
**0..--
**.-**0
01..***
.****01
1*.*--.
.*.*.*-
-..-..*
.*-1*..
-*1.***
0**..*-
1**.-..
.*.1.**
-0--0.-
-0**..-

*** Life<Cell> 14x7 ***

Generation = 0, Population = 13.
----0--
----0--
----0-0
------0
----0--
-------
-------
-0-----
-------
-0----0
-------
0---00-
-------
--0----

Generation = 11, Population = 21.
.-.1...
-..--..
*-.-...
..--.-.
--.-011
--.....
--0-1.1
.-.....
011-..1
...-..-
..---.0
..*..-*
-0**.00
.*-...-

*** Life<Cell> 14x7 ***

Generation = 0, Population = 15.
-----0-
0-----0
-0-----
-----0-
---0---
------0
---0---
-----0-
-------
-------
-00---0
0------
0------
------0

Generation = 11, Population = 43.
010*-*-
1....-.
0.-*0.*
0.*.---
..-.1.*
10.0..*
0**.-.*
-1..-.*
--.-10.
-*1*-**
...*.1*
*....*-
..*1.-*
.-11.*1
